<?xml version="1.0" encoding="UTF-8" standalone="no"?>
<!-- Created with Inkscape (http://www.inkscape.org/) -->

<svg
   xmlns:dc="http://purl.org/dc/elements/1.1/"
   xmlns:cc="http://creativecommons.org/ns#"
   xmlns:rdf="http://www.w3.org/1999/02/22-rdf-syntax-ns#"
   xmlns:svg="http://www.w3.org/2000/svg"
   xmlns="http://www.w3.org/2000/svg"
   xmlns:sodipodi="http://sodipodi.sourceforge.net/DTD/sodipodi-0.dtd"
   xmlns:inkscape="http://www.inkscape.org/namespaces/inkscape"
   width="3.5in"
   height="1.25in"
   viewBox="0 0 88.899999 31.75"
   version="1.1"
   id="svg8"
   inkscape:version="0.92.1 r15371"
   sodipodi:docname="FreshCertified_Sticker_Outline.svg">
  <defs
     id="defs2" />
  <sodipodi:namedview
     id="base"
     pagecolor="#ffffff"
     bordercolor="#666666"
     borderopacity="1.0"
     inkscape:pageopacity="0.0"
     inkscape:pageshadow="2"
     inkscape:zoom="1.5668986"
     inkscape:cx="172.94063"
     inkscape:cy="46.653334"
     inkscape:document-units="in"
     inkscape:current-layer="text8427"
     showgrid="false"
     inkscape:window-width="1920"
     inkscape:window-height="1025"
     inkscape:window-x="0"
     inkscape:window-y="31"
     inkscape:window-maximized="1"
     units="in">
    <inkscape:grid
       type="xygrid"
       id="grid8421"
       units="mm"
       spacingx="0.99999999"
       spacingy="0.99999999" />
  </sodipodi:namedview>
  <metadata
     id="metadata5">
    <rdf:RDF>
      <cc:Work
         rdf:about="">
        <dc:format>image/svg+xml</dc:format>
        <dc:type
           rdf:resource="http://purl.org/dc/dcmitype/StillImage" />
        <dc:title></dc:title>
      </cc:Work>
    </rdf:RDF>
  </metadata>
  <g
     inkscape:label="Layer 1"
     inkscape:groupmode="layer"
     id="layer1"
     transform="translate(0,-265.25)">
    <rect
       style="opacity:1;fill:#ffffff;fill-opacity:1;fill-rule:evenodd;stroke:#ff00ff;stroke-width:0.35299999;stroke-linecap:square;stroke-linejoin:miter;stroke-miterlimit:4;stroke-dasharray:none;stroke-dashoffset:1.20110357;stroke-opacity:1;paint-order:normal"
       id="rect8429"
       width="47.271999"
       height="12.347"
       x="9.0804863"
       y="280.68527"
       rx="0.67190146"
       ry="0.72237295" />
    <g
       id="g8443"
       transform="matrix(0.72623134,0,0,0.72623134,7.320965,72.465627)"
       style="stroke-width:1.37697172">
      <g
         aria-label="FRESH   Certified"
         style="font-style:normal;font-variant:normal;font-weight:300;font-stretch:normal;font-size:8.15556908px;line-height:125%;font-family:Titillium;-inkscape-font-specification:'Titillium, Light';font-variant-ligatures:normal;font-variant-caps:normal;font-variant-numeric:normal;font-feature-settings:normal;text-align:start;letter-spacing:0px;word-spacing:0px;writing-mode:lr-tb;text-anchor:start;fill:#000000;fill-opacity:1;stroke:none;stroke-width:0.36432371px;stroke-linecap:butt;stroke-linejoin:miter;stroke-opacity:1"
         id="text8427">
        <path
           d="m 6.5516615,298.13705 h 0.9052681 v -2.12044 h 2.1286036 v -0.79109 H 7.4569296 v -1.88394 h 2.5608484 v -0.79109 H 6.5516615 Z"
           style="font-style:normal;font-variant:normal;font-weight:600;font-stretch:normal;font-family:Titillium;-inkscape-font-specification:'Titillium Semi-Bold';fill:#0d86ea;fill-opacity:1;stroke-width:0.36432371px"
           id="path8672" />
        <path
           d="m 13.086693,296.1471 0.807402,1.98995 h 0.994979 l -0.921579,-2.19384 c 0.595356,-0.27729 0.913424,-0.82372 0.913424,-1.61481 0,-1.23964 -0.660601,-1.77791 -1.892092,-1.77791 h -2.120448 v 5.58656 h 0.905268 v -1.98995 z m 0.864491,-1.81054 c 0,0.57904 -0.260978,1.0276 -0.946046,1.0276 h -1.231491 v -2.03074 h 1.21518 c 0.652445,0 0.962357,0.367 0.962357,1.00314 z"
           style="font-style:normal;font-variant:normal;font-weight:600;font-stretch:normal;font-family:Titillium;-inkscape-font-specification:'Titillium Semi-Bold';fill:#0d86ea;fill-opacity:1;stroke-width:0.36432371px"
           id="path8674" />
        <path
           d="M 15.901895,298.13705 H 19.4251 v -0.79924 h -2.617937 v -1.63112 h 2.128603 v -0.78293 h -2.128603 v -1.58218 H 19.4251 v -0.79109 h -3.523205 z"
           style="font-style:normal;font-variant:normal;font-weight:600;font-stretch:normal;font-family:Titillium;-inkscape-font-specification:'Titillium Semi-Bold';fill:#0d86ea;fill-opacity:1;stroke-width:0.36432371px"
           id="path8676" />
        <path
           d="m 23.73723,292.64836 c 0,0 -1.060224,-0.19574 -1.769759,-0.19574 -1.117313,0 -1.859469,0.46487 -1.859469,1.59034 0,0.97051 0.521956,1.33751 1.72898,1.64742 0.856335,0.20389 1.109158,0.367 1.109158,0.84003 0,0.5872 -0.318068,0.89711 -1.011291,0.89711 -0.579045,0 -1.680047,-0.1468 -1.680047,-0.1468 l -0.08971,0.72585 c 0,0 1.101001,0.2202 1.826847,0.2202 1.101002,0 1.867625,-0.53012 1.867625,-1.75345 0,-0.9542 -0.424089,-1.26411 -1.598491,-1.59034 -0.954202,-0.26098 -1.247802,-0.38331 -1.247802,-0.90527 0,-0.48117 0.350689,-0.72584 1.035757,-0.72584 0.473023,0 1.614803,0.13049 1.614803,0.13049 z"
           style="font-style:normal;font-variant:normal;font-weight:600;font-stretch:normal;font-family:Titillium;-inkscape-font-specification:'Titillium Semi-Bold';fill:#0d86ea;fill-opacity:1;stroke-width:0.36432371px"
           id="path8678" />
        <path
           d="m 28.157294,298.13705 h 0.913424 v -5.58656 h -0.913424 v 2.38143 h -2.414048 v -2.38143 h -0.905269 v 5.58656 h 0.905269 v -2.41404 h 2.414048 z"
           style="font-style:normal;font-variant:normal;font-weight:600;font-stretch:normal;font-family:Titillium;-inkscape-font-specification:'Titillium Semi-Bold';fill:#0d86ea;fill-opacity:1;stroke-width:0.36432371px"
           id="path8680" />
        <path
           d="m 39.182731,297.50908 c -0.391468,0.0734 -0.99498,0.1468 -1.451692,0.1468 -1.28858,0 -1.492469,-0.75032 -1.492469,-2.32434 0,-1.60665 0.220201,-2.35696 1.476158,-2.35696 0.440401,0 1.101002,0.0815 1.468003,0.1468 l 0.02447,-0.53011 c -0.358845,-0.0734 -0.978668,-0.17943 -1.557713,-0.17943 -1.696359,0 -2.063359,1.0113 -2.063359,2.9197 0,1.85947 0.375156,2.88707 2.063359,2.88707 0.538267,0 1.15809,-0.0897 1.557713,-0.17127 z"
           style="font-style:normal;font-variant:normal;font-weight:normal;font-stretch:normal;font-family:Titillium;-inkscape-font-specification:Titillium;stroke-width:0.36432371px;fill:#0d86ea;fill-opacity:1"
           id="path8682" />
        <path
           d="m 41.565433,297.68034 c -0.799246,0 -1.068379,-0.45671 -1.068379,-1.32936 h 2.691337 l 0.03262,-0.46486 c 0,-1.33752 -0.554579,-1.90841 -1.63927,-1.90841 -1.035757,0 -1.704514,0.59536 -1.704514,2.14492 0,1.38645 0.399623,2.09598 1.614803,2.09598 0.660601,0 1.590336,-0.13049 1.590336,-0.13049 l -0.01631,-0.48118 c 0,0 -0.888957,0.0734 -1.500625,0.0734 z m -1.076535,-1.81869 c 0.0082,-0.98682 0.399623,-1.37013 1.092846,-1.37013 0.71769,0 1.027602,0.35884 1.027602,1.37013 z"
           style="font-style:normal;font-variant:normal;font-weight:normal;font-stretch:normal;font-family:Titillium;-inkscape-font-specification:Titillium;stroke-width:0.36432371px;fill:#0d86ea;fill-opacity:1"
           id="path8684" />
        <path
           d="m 44.182221,298.13705 h 0.611668 v -2.99309 c 0,0 0.71769,-0.39962 1.484314,-0.55458 v -0.61982 c -0.782935,0.15495 -1.49247,0.64429 -1.49247,0.64429 v -0.55458 h -0.603512 z"
           style="font-style:normal;font-variant:normal;font-weight:normal;font-stretch:normal;font-family:Titillium;-inkscape-font-specification:Titillium;stroke-width:0.36432371px;fill:#0d86ea;fill-opacity:1"
           id="path8686" />
        <path
           d="m 49.113922,294.58938 v -0.53011 h -1.296735 v -1.2478 h -0.603513 v 1.2478 h -0.579045 v 0.53011 h 0.579045 v 2.14492 c 0,1.1744 0.285445,1.49247 1.125469,1.49247 0.285445,0 0.831868,-0.0897 0.831868,-0.0897 l -0.04078,-0.50564 c 0,0 -0.49749,0.0489 -0.725845,0.0489 -0.530112,0 -0.587201,-0.25282 -0.587201,-1.14178 v -1.94918 z"
           style="font-style:normal;font-variant:normal;font-weight:normal;font-stretch:normal;font-family:Titillium;-inkscape-font-specification:Titillium;stroke-width:0.36432371px;fill:#0d86ea;fill-opacity:1"
           id="path8688" />
        <path
           d="m 49.868821,298.13705 h 0.611668 v -4.07778 h -0.611668 z m 0,-4.99936 h 0.611668 v -0.70953 h -0.611668 z"
           style="font-style:normal;font-variant:normal;font-weight:normal;font-stretch:normal;font-family:Titillium;-inkscape-font-specification:Titillium;stroke-width:0.36432371px;fill:#0d86ea;fill-opacity:1"
           id="path8690" />
        <path
           d="m 52.435787,294.58938 h 1.182557 v -0.53011 h -1.182557 v -0.35885 c 0,-0.75846 0.1468,-0.9542 0.603512,-0.9542 0.244667,0 0.701379,0.0163 0.701379,0.0163 l 0.0082,-0.50564 c 0,0 -0.546423,-0.0571 -0.823712,-0.0571 -0.799246,0 -1.101002,0.31807 -1.101002,1.49247 v 0.367 h -0.513801 v 0.53011 h 0.513801 v 3.54767 h 0.611668 z"
           style="font-style:normal;font-variant:normal;font-weight:normal;font-stretch:normal;font-family:Titillium;-inkscape-font-specification:Titillium;stroke-width:0.36432371px;fill:#0d86ea;fill-opacity:1"
           id="path8692" />
        <path
           d="m 54.344827,298.13705 h 0.611667 v -4.07778 h -0.611667 z m 0,-4.99936 h 0.611667 v -0.70953 h -0.611667 z"
           style="font-style:normal;font-variant:normal;font-weight:normal;font-stretch:normal;font-family:Titillium;-inkscape-font-specification:Titillium;stroke-width:0.36432371px;fill:#0d86ea;fill-opacity:1"
           id="path8694" />
        <path
           d="m 57.637638,297.68034 c -0.799246,0 -1.06838,-0.45671 -1.06838,-1.32936 h 2.691338 l 0.03262,-0.46486 c 0,-1.33752 -0.554578,-1.90841 -1.639269,-1.90841 -1.035757,0 -1.704514,0.59536 -1.704514,2.14492 0,1.38645 0.399623,2.09598 1.614803,2.09598 0.660601,0 1.590336,-0.13049 1.590336,-0.13049 l -0.01631,-0.48118 c 0,0 -0.888957,0.0734 -1.500624,0.0734 z m -1.076535,-1.81869 c 0.0082,-0.98682 0.399623,-1.37013 1.092846,-1.37013 0.71769,0 1.027602,0.35884 1.027602,1.37013 z"
           style="font-style:normal;font-variant:normal;font-weight:normal;font-stretch:normal;font-family:Titillium;-inkscape-font-specification:Titillium;stroke-width:0.36432371px;fill:#0d86ea;fill-opacity:1"
           id="path8696" />
        <path
           d="m 63.386168,292.28136 h -0.603512 v 1.80238 c -0.122333,-0.0245 -0.652445,-0.10603 -1.003135,-0.10603 -1.239646,0 -1.704514,0.71769 -1.704514,2.15307 0,1.76161 0.668757,2.08783 1.468003,2.08783 0.611667,0 1.239646,-0.35884 1.239646,-0.35884 v 0.27728 h 0.603512 z m -1.769758,5.39083 c -0.481179,0 -0.913424,-0.2202 -0.913424,-1.54141 0,-1.06022 0.252823,-1.62295 1.109157,-1.62295 0.334379,0 0.840024,0.0734 0.970513,0.0979 v 2.76474 c 0,0 -0.587201,0.30176 -1.166246,0.30176 z"
           style="font-style:normal;font-variant:normal;font-weight:normal;font-stretch:normal;font-family:Titillium;-inkscape-font-specification:Titillium;stroke-width:0.36432371px;fill:#0d86ea;fill-opacity:1"
           id="path8698" />
      </g>
      <text
         xml:space="preserve"
         style="font-style:normal;font-variant:normal;font-weight:300;font-stretch:normal;font-size:2.74394321px;line-height:125%;font-family:Titillium;-inkscape-font-specification:'Titillium, Light';font-variant-ligatures:normal;font-variant-caps:normal;font-variant-numeric:normal;font-feature-settings:normal;text-align:start;letter-spacing:0px;word-spacing:0px;writing-mode:lr-tb;text-anchor:start;fill:#000000;fill-opacity:1;stroke:none;stroke-width:0.36432371px;stroke-linecap:butt;stroke-linejoin:miter;stroke-opacity:1"
         x="29.577984"
         y="294.38446"
         id="text8437"><tspan
           sodipodi:role="line"
           id="tspan8435"
           x="29.577984"
           y="294.38446"
           style="font-style:normal;font-variant:normal;font-weight:600;font-stretch:normal;font-family:Titillium;-inkscape-font-specification:'Titillium Semi-Bold';fill:#0d86ea;fill-opacity:1;stroke-width:0.36432371px">TM</tspan></text>
    </g>
    <g
       id="g8565"
       transform="translate(-28.834364,4.8101028)">
      <g
         id="g18501"
         transform="matrix(0.26458333,0,0,0.26458333,-357.21051,32.725851)">
        <g
           id="g1636-2"
           transform="matrix(1.3333333,0,0,-1.3333333,-38.92307,700.16913)">
          <path
             d="m 1293.336,-163.61502 v -35.77415"
             style="fill:none;stroke:#000000;stroke-width:0.28313801;stroke-linecap:butt;stroke-linejoin:miter;stroke-miterlimit:4;stroke-dasharray:none;stroke-opacity:1"
             id="path1638-8"
             inkscape:connector-curvature="0"
             sodipodi:nodetypes="cc" />
        </g>
        <g
           id="g1640-9"
           transform="matrix(1.3333333,0,0,-1.3333333,-38.92307,691.66213)">
          <path
             d="m 1287.648,-170.137 h 11.403"
             style="fill:none;stroke:#000000;stroke-width:0.283465;stroke-linecap:butt;stroke-linejoin:miter;stroke-miterlimit:4;stroke-dasharray:none;stroke-opacity:1"
             id="path1642-7"
             inkscape:connector-curvature="0" />
        </g>
        <g
           id="g1644-3"
           transform="matrix(1.3333333,0,0,-1.3333333,-38.92307,646.97751)">
          <path
             d="m 1287.473,-239.367 h 11.402"
             style="fill:none;stroke:#000000;stroke-width:0.283465;stroke-linecap:butt;stroke-linejoin:miter;stroke-miterlimit:4;stroke-dasharray:none;stroke-opacity:1"
             id="path1646-6"
             inkscape:connector-curvature="0" />
        </g>
        <g
           id="g1648-1"
           transform="matrix(1.3333333,0,0,-1.3333333,-38.92307,666.76526)">
          <path
             d="m 1293.438,-206.555 h 11.402"
             style="fill:none;stroke:#000000;stroke-width:0.283465;stroke-linecap:butt;stroke-linejoin:miter;stroke-miterlimit:4;stroke-dasharray:none;stroke-opacity:1"
             id="path1650-2"
             inkscape:connector-curvature="0" />
        </g>
        <g
           aria-label="12.7 mm"
           style="font-style:normal;font-variant:normal;font-weight:300;font-stretch:normal;font-size:13.73333359px;line-height:125%;font-family:Titillium;-inkscape-font-specification:'Titillium, Light';font-variant-ligatures:normal;font-variant-caps:normal;font-variant-numeric:normal;font-feature-settings:normal;text-align:start;letter-spacing:0px;word-spacing:0px;writing-mode:lr-tb;text-anchor:start;fill:#000000;fill-opacity:1;stroke:none;stroke-width:1px;stroke-linecap:butt;stroke-linejoin:miter;stroke-opacity:1"
           id="text22732-9">
          <path
             d="m 1704.2595,946.01304 h 2.1484 v -7.41536 l -2.3372,0.46875 v -1.19792 l 2.3242,-0.46875 h 1.3151 v 8.61328 h 2.1484 v 1.10677 h -5.5989 z"
             style="font-style:normal;font-variant:normal;font-weight:normal;font-stretch:normal;font-size:13.33333302px;font-family:'DejaVu Sans';-inkscape-font-specification:'DejaVu Sans'"
             id="path9160"
             inkscape:connector-curvature="0" />
          <path
             d="m 1713.654,946.01304 h 4.5899 v 1.10677 h -6.1719 v -1.10677 q 0.7487,-0.77474 2.0377,-2.07682 1.2956,-1.3086 1.6276,-1.6862 0.6316,-0.70963 0.879,-1.19792 0.2539,-0.49479 0.2539,-0.97005 0,-0.77474 -0.5469,-1.26302 -0.5404,-0.48828 -1.4128,-0.48828 -0.6185,0 -1.3086,0.21484 -0.6836,0.21485 -1.4648,0.65105 v -1.32813 q 0.7943,-0.31901 1.4844,-0.48177 0.6901,-0.16276 1.263,-0.16276 1.5104,0 2.4088,0.75521 0.8985,0.75521 0.8985,2.01823 0,0.59895 -0.2279,1.13932 -0.2213,0.53385 -0.8138,1.26302 -0.1628,0.1888 -1.0352,1.09375 -0.8723,0.89844 -2.4609,2.51953 z"
             style="font-style:normal;font-variant:normal;font-weight:normal;font-stretch:normal;font-size:13.33333302px;font-family:'DejaVu Sans';-inkscape-font-specification:'DejaVu Sans'"
             id="path9162"
             inkscape:connector-curvature="0" />
          <path
             d="m 1721.0108,945.46617 h 1.3737 v 1.65364 h -1.3737 z"
             style="font-style:normal;font-variant:normal;font-weight:normal;font-stretch:normal;font-size:13.33333302px;font-family:'DejaVu Sans';-inkscape-font-specification:'DejaVu Sans'"
             id="path9164"
             inkscape:connector-curvature="0" />
          <path
             d="m 1724.9235,937.39976 h 6.25 v 0.5599 l -3.5286,9.16015 h -1.3737 l 3.3203,-8.61328 h -4.668 z"
             style="font-style:normal;font-variant:normal;font-weight:normal;font-stretch:normal;font-size:13.33333302px;font-family:'DejaVu Sans';-inkscape-font-specification:'DejaVu Sans'"
             id="path9166"
             inkscape:connector-curvature="0" />
          <path
             d="m 1743.4978,941.22789 q 0.4492,-0.8073 1.0742,-1.19141 0.625,-0.38412 1.4713,-0.38412 1.1394,0 1.7578,0.80079 0.6185,0.79427 0.6185,2.26562 v 4.40104 h -1.2044 v -4.36198 q 0,-1.04817 -0.3711,-1.55599 -0.3711,-0.50781 -1.1328,-0.50781 -0.931,0 -1.4714,0.61849 -0.5403,0.61849 -0.5403,1.6862 v 4.12109 h -1.2044 v -4.36198 q 0,-1.05468 -0.3711,-1.55599 -0.3711,-0.50781 -1.1459,-0.50781 -0.9179,0 -1.4583,0.625 -0.5404,0.61849 -0.5404,1.67969 v 4.12109 h -1.2044 v -7.29166 h 1.2044 v 1.13281 q 0.4102,-0.67057 0.9831,-0.98959 0.5729,-0.31901 1.3607,-0.31901 0.7943,0 1.3476,0.40365 0.5599,0.40365 0.8269,1.17188 z"
             style="font-style:normal;font-variant:normal;font-weight:normal;font-stretch:normal;font-size:13.33333302px;font-family:'DejaVu Sans';-inkscape-font-specification:'DejaVu Sans'"
             id="path9168"
             inkscape:connector-curvature="0" />
          <path
             d="m 1756.4926,941.22789 q 0.4492,-0.8073 1.0742,-1.19141 0.625,-0.38412 1.4713,-0.38412 1.1393,0 1.7578,0.80079 0.6185,0.79427 0.6185,2.26562 v 4.40104 h -1.2044 v -4.36198 q 0,-1.04817 -0.3711,-1.55599 -0.3711,-0.50781 -1.1328,-0.50781 -0.931,0 -1.4714,0.61849 -0.5403,0.61849 -0.5403,1.6862 v 4.12109 h -1.2045 v -4.36198 q 0,-1.05468 -0.371,-1.55599 -0.3711,-0.50781 -1.1459,-0.50781 -0.9179,0 -1.4583,0.625 -0.5404,0.61849 -0.5404,1.67969 v 4.12109 h -1.2044 v -7.29166 h 1.2044 v 1.13281 q 0.4102,-0.67057 0.9831,-0.98959 0.5729,-0.31901 1.3607,-0.31901 0.7942,0 1.3476,0.40365 0.5599,0.40365 0.8269,1.17188 z"
             style="font-style:normal;font-variant:normal;font-weight:normal;font-stretch:normal;font-size:13.33333302px;font-family:'DejaVu Sans';-inkscape-font-specification:'DejaVu Sans'"
             id="path9170"
             inkscape:connector-curvature="0" />
        </g>
      </g>
      <g
         id="g18484"
         transform="matrix(0.26458333,0,0,0.26458333,-357.21051,32.725851)">
        <g
           id="g1656-8"
           transform="matrix(1.3333333,0,0,-1.3333333,-40.577174,688.16913)">
          <path
             d="m 1149.973,-160.633 h 134.8069"
             style="fill:none;stroke:#000000;stroke-width:0.28349999;stroke-linecap:butt;stroke-linejoin:miter;stroke-miterlimit:4;stroke-dasharray:none;stroke-opacity:1"
             id="path1658-7"
             inkscape:connector-curvature="0"
             sodipodi:nodetypes="cc" />
        </g>
        <g
           id="g1660-9"
           transform="matrix(1.3333333,0,0,-1.3333333,-40.104808,688.16913)">
          <path
             d="m 1284.477,-154.93 v -11.402"
             style="fill:none;stroke:#000000;stroke-width:0.283465;stroke-linecap:butt;stroke-linejoin:miter;stroke-miterlimit:4;stroke-dasharray:none;stroke-opacity:1"
             id="path1662-2"
             inkscape:connector-curvature="0" />
        </g>
        <g
           id="g1668-0"
           transform="matrix(1.3333333,0,0,-1.3333333,-36.16517,688.16913)">
          <path
             d="m 1214.164,-160.398 v 11.402"
             style="fill:none;stroke:#000000;stroke-width:0.28349999;stroke-linecap:butt;stroke-linejoin:miter;stroke-miterlimit:4;stroke-dasharray:none;stroke-opacity:1"
             id="path1670-2"
             inkscape:connector-curvature="0" />
        </g>
        <g
           id="g1664-5"
           transform="matrix(1.3333333,0,0,-1.3333333,-40.517531,688.16913)">
          <path
             d="m 1150.07,-154.93 v -11.402"
             style="fill:none;stroke:#000000;stroke-width:0.283465;stroke-linecap:butt;stroke-linejoin:miter;stroke-miterlimit:4;stroke-dasharray:none;stroke-opacity:1"
             id="path1666-9"
             inkscape:connector-curvature="0" />
        </g>
        <g
           aria-label="47.625 mm"
           style="font-style:normal;font-variant:normal;font-weight:300;font-stretch:normal;font-size:13.73333359px;line-height:125%;font-family:Titillium;-inkscape-font-specification:'Titillium, Light';font-variant-ligatures:normal;font-variant-caps:normal;font-variant-numeric:normal;font-feature-settings:normal;text-align:start;letter-spacing:0px;word-spacing:0px;writing-mode:lr-tb;text-anchor:start;fill:#000000;fill-opacity:1;stroke:none;stroke-width:1px;stroke-linecap:butt;stroke-linejoin:miter;stroke-opacity:1"
           id="text9286">
          <path
             d="m 1553.6218,876.30219 -3.3203,5.1888 h 3.3203 z m -0.345,-1.14584 h 1.6536 v 6.33464 h 1.3867 v 1.09375 h -1.3867 v 2.29166 h -1.3086 v -2.29166 h -4.388 v -1.26953 z"
             style="font-style:normal;font-variant:normal;font-weight:normal;font-stretch:normal;font-size:13.33333302px;font-family:'DejaVu Sans';-inkscape-font-specification:'DejaVu Sans'"
             id="path9143"
             inkscape:connector-curvature="0" />
          <path
             d="m 1558.1661,875.15635 h 6.25 v 0.5599 l -3.5286,9.16015 h -1.3737 l 3.3203,-8.61328 h -4.668 z"
             style="font-style:normal;font-variant:normal;font-weight:normal;font-stretch:normal;font-size:13.33333302px;font-family:'DejaVu Sans';-inkscape-font-specification:'DejaVu Sans'"
             id="path9145"
             inkscape:connector-curvature="0" />
          <path
             d="m 1566.9877,883.22276 h 1.3737 v 1.65364 h -1.3737 z"
             style="font-style:normal;font-variant:normal;font-weight:normal;font-stretch:normal;font-size:13.33333302px;font-family:'DejaVu Sans';-inkscape-font-specification:'DejaVu Sans'"
             id="path9147"
             inkscape:connector-curvature="0" />
          <path
             d="m 1574.2078,879.49229 q -0.8855,0 -1.4063,0.60547 -0.5143,0.60547 -0.5143,1.66015 0,1.04818 0.5143,1.66016 0.5208,0.60547 1.4063,0.60547 0.8854,0 1.3997,-0.60547 0.5208,-0.61198 0.5208,-1.66016 0,-1.05468 -0.5208,-1.66015 -0.5143,-0.60547 -1.3997,-0.60547 z m 2.6106,-4.12109 v 1.19791 q -0.4948,-0.23437 -1.0026,-0.35807 -0.5013,-0.1237 -0.9961,-0.1237 -1.302,0 -1.9921,0.87891 -0.6836,0.8789 -0.7813,2.65625 0.3841,-0.56641 0.9635,-0.86589 0.5795,-0.30599 1.2761,-0.30599 1.4648,0 2.3112,0.89193 0.8528,0.88542 0.8528,2.41536 0,1.4974 -0.8854,2.40235 -0.8854,0.90495 -2.3567,0.90495 -1.6862,0 -2.5782,-1.28907 -0.8919,-1.29557 -0.8919,-3.75 0,-2.30468 1.0938,-3.67187 1.0937,-1.3737 2.9362,-1.3737 0.4947,0 0.9961,0.0977 0.5078,0.0977 1.0546,0.29297 z"
             style="font-style:normal;font-variant:normal;font-weight:normal;font-stretch:normal;font-size:13.33333302px;font-family:'DejaVu Sans';-inkscape-font-specification:'DejaVu Sans'"
             id="path9149"
             inkscape:connector-curvature="0" />
          <path
             d="m 1580.8549,883.76963 h 4.5898 v 1.10677 h -6.1718 v -1.10677 q 0.7487,-0.77474 2.0377,-2.07682 1.2956,-1.30859 1.6276,-1.6862 0.6315,-0.70963 0.8789,-1.19791 0.2539,-0.4948 0.2539,-0.97006 0,-0.77474 -0.5468,-1.26302 -0.5404,-0.48828 -1.4128,-0.48828 -0.6185,0 -1.3086,0.21485 -0.6836,0.21484 -1.4648,0.65104 v -1.32813 q 0.7942,-0.31901 1.4843,-0.48177 0.6902,-0.16276 1.2631,-0.16276 1.5104,0 2.4088,0.75521 0.8985,0.75521 0.8985,2.01823 0,0.59896 -0.2279,1.13932 -0.2214,0.53386 -0.8138,1.26302 -0.1628,0.1888 -1.0352,1.09375 -0.8724,0.89844 -2.4609,2.51953 z"
             style="font-style:normal;font-variant:normal;font-weight:normal;font-stretch:normal;font-size:13.33333302px;font-family:'DejaVu Sans';-inkscape-font-specification:'DejaVu Sans'"
             id="path9151"
             inkscape:connector-curvature="0" />
          <path
             d="m 1588.2247,875.15635 h 5.1628 v 1.10677 h -3.9584 v 2.38282 q 0.2865,-0.0977 0.5729,-0.14323 0.2865,-0.0521 0.573,-0.0521 1.6276,0 2.5781,0.89193 0.9505,0.89193 0.9505,2.41536 0,1.56901 -0.9766,2.44141 -0.9765,0.86589 -2.7539,0.86589 -0.612,0 -1.25,-0.10417 -0.6315,-0.10417 -1.3086,-0.3125 v -1.32162 q 0.586,0.31902 1.211,0.47527 0.625,0.15625 1.3216,0.15625 1.1263,0 1.7838,-0.59245 0.6576,-0.59245 0.6576,-1.60808 0,-1.01562 -0.6576,-1.60807 -0.6575,-0.59245 -1.7838,-0.59245 -0.5274,0 -1.0547,0.11719 -0.5208,0.11719 -1.0677,0.36458 z"
             style="font-style:normal;font-variant:normal;font-weight:normal;font-stretch:normal;font-size:13.33333302px;font-family:'DejaVu Sans';-inkscape-font-specification:'DejaVu Sans'"
             id="path9153"
             inkscape:connector-curvature="0" />
          <path
             d="m 1606.4539,878.98448 q 0.4492,-0.80729 1.0742,-1.19141 0.625,-0.38411 1.4713,-0.38411 1.1394,0 1.7578,0.80078 0.6185,0.79427 0.6185,2.26562 v 4.40104 h -1.2044 v -4.36198 q 0,-1.04817 -0.3711,-1.55598 -0.3711,-0.50782 -1.1328,-0.50782 -0.931,0 -1.4714,0.61849 -0.5403,0.61849 -0.5403,1.6862 v 4.12109 h -1.2044 v -4.36198 q 0,-1.05468 -0.3711,-1.55598 -0.3711,-0.50782 -1.1459,-0.50782 -0.9179,0 -1.4583,0.625 -0.5404,0.61849 -0.5404,1.67969 v 4.12109 h -1.2044 v -7.29166 h 1.2044 v 1.13281 q 0.4102,-0.67057 0.9831,-0.98958 0.5729,-0.31901 1.3607,-0.31901 0.7942,0 1.3476,0.40364 0.5599,0.40365 0.8269,1.17188 z"
             style="font-style:normal;font-variant:normal;font-weight:normal;font-stretch:normal;font-size:13.33333302px;font-family:'DejaVu Sans';-inkscape-font-specification:'DejaVu Sans'"
             id="path9155"
             inkscape:connector-curvature="0" />
          <path
             d="m 1619.4486,878.98448 q 0.4493,-0.80729 1.0743,-1.19141 0.625,-0.38411 1.4713,-0.38411 1.1393,0 1.7578,0.80078 0.6185,0.79427 0.6185,2.26562 v 4.40104 h -1.2044 v -4.36198 q 0,-1.04817 -0.3711,-1.55598 -0.3711,-0.50782 -1.1328,-0.50782 -0.931,0 -1.4714,0.61849 -0.5403,0.61849 -0.5403,1.6862 v 4.12109 h -1.2045 v -4.36198 q 0,-1.05468 -0.3711,-1.55598 -0.371,-0.50782 -1.1458,-0.50782 -0.918,0 -1.4583,0.625 -0.5404,0.61849 -0.5404,1.67969 v 4.12109 h -1.2044 v -7.29166 h 1.2044 v 1.13281 q 0.4102,-0.67057 0.9831,-0.98958 0.5729,-0.31901 1.3607,-0.31901 0.7942,0 1.3476,0.40364 0.5599,0.40365 0.8268,1.17188 z"
             style="font-style:normal;font-variant:normal;font-weight:normal;font-stretch:normal;font-size:13.33333302px;font-family:'DejaVu Sans';-inkscape-font-specification:'DejaVu Sans'"
             id="path9157"
             inkscape:connector-curvature="0" />
        </g>
      </g>
    </g>
  </g>
</svg>
