  0
SECTION
  2
HEADER
  9
$ACADVER
  1
AC1009
  9
$INSBASE
 10
0.0
 20
0.0
 30
0.0
  9
$EXTMIN
 10
0.0
 20
0.0
 30
0.0
  9
$EXTMAX
 10
0.0
 20
0.0
 30
0.0
  0
ENDSEC
  0
SECTION
  2
TABLES
  0
TABLE
  2
VPORT
 70
0
  0
ENDTAB
  0
TABLE
  2
LTYPE
 70
1
  0
LTYPE
  2
CONTINUOUS
 70
0
  3
Solid line
 72
65
 73
0
 40
0.0
  0
ENDTAB
  0
TABLE
  2
LAYER
 70
1
  0
LAYER
  2
0
 70
64
 62
7
  6
continuous
  0
ENDTAB
  0
TABLE
  2
STYLE
 70
1
  0
STYLE
  2
STANDARD
 70
0
 40
0
 41
1.0
 50
0.0
 71
0
 42
1
 3
ARIAL.TTF
 4

  0
ENDTAB
  0
TABLE
  2
VIEW
 70
0
  0
ENDTAB
  0
ENDSEC
  0
SECTION
  2
BLOCKS
  0
BLOCK
  8
0
  2
SHAPE2DVIEW
 70
0
 10
0.0
 20
0.0
 30
0.0
  3
SHAPE2DVIEW
  0
LINE
  8
0
 62
0
 10
0.5
 20
-123.0
 30
0.0
 11
83.0
 21
-123.0
 31
0.0
  0
ARC
  8
0
 62
0
 10
83.0
 20
-121.0
 30
0.0
 40
2.0
 50
-90.0
 51
-0.0
  0
LINE
  8
0
 62
0
 10
0.5
 20
-8.749999999999991
 30
0.0
 11
0.5
 21
-123.0
 31
0.0
  0
LINE
  8
0
 62
0
 10
85.0
 20
-121.0
 30
0.0
 11
85.0
 21
0.25
 31
0.0
  0
ARC
  8
0
 62
0
 10
9.499999999999998
 20
-8.749999999999998
 30
0.0
 40
9.0
 50
90.00000000000006
 51
-180.0
  0
LINE
  8
0
 62
0
 10
85.0
 20
0.25
 30
0.0
 11
9.5
 21
0.25
 31
0.0
  0
CIRCLE
  8
0
 62
0
 10
78.45
 20
-5.55
 30
0.0
 40
2.0
  0
CIRCLE
  8
0
 62
0
 10
6.45
 20
-5.55
 30
0.0
 40
2.0
  0
CIRCLE
  8
0
 62
0
 10
78.45
 20
-61.05
 30
0.0
 40
2.0
  0
LINE
  8
0
 62
0
 10
73.7
 20
-110.55
 30
0.0
 11
17.200000000000003
 21
-110.55
 31
0.0
  0
LINE
  8
0
 62
0
 10
73.7
 20
-11.549999999999997
 30
0.0
 11
73.7
 21
-110.55
 31
0.0
  0
LINE
  8
0
 62
0
 10
17.200000000000003
 20
-11.549999999999997
 30
0.0
 11
73.7
 21
-11.549999999999997
 31
0.0
  0
LINE
  8
0
 62
0
 10
17.200000000000003
 20
-110.55
 30
0.0
 11
17.200000000000003
 21
-11.549999999999997
 31
0.0
  0
CIRCLE
  8
0
 62
0
 10
78.45
 20
-116.55
 30
0.0
 40
2.0
  0
CIRCLE
  8
0
 62
0
 10
6.45
 20
-116.55
 30
0.0
 40
2.0
  0
ENDBLK
  0
ENDSEC
  0
SECTION
  2
ENTITIES
  0
INSERT
  2
SHAPE2DVIEW
  8
0
 62
0
 10
0.0
 20
0.0
 30
0.0
  0
ENDSEC
  0
EOF
