ISO-10303-21;
HEADER;
FILE_DESCRIPTION(('STEP AP214'),'1');
FILE_NAME('0_64m_06_20_028_0___060_20_12_A1_3.stp','2018-02-06T19:37:17',('igus GmbH'),(''),'Spatial InterOp 3D',' ',' ');
FILE_SCHEMA(('AUTOMOTIVE_DESIGN'));
ENDSEC;
DATA;
#1=MECHANICAL_DESIGN_GEOMETRIC_PRESENTATION_REPRESENTATION(' ',(#10,#11,#12,#13,#14,#15,#16,#17,#18,#19,#20,#21,#22,#23,#24,#25,#26,#27,#28,#29,#30,#31,#32,#33,#34,#35,#36,#37,#38,#39,#40,#41,#42,#43,#44),#6);
#2=PRODUCT_DEFINITION_CONTEXT('',#45,'design');
#3=APPLICATION_PROTOCOL_DEFINITION('INTERNATIONAL STANDARD','automotive_design',1994,#45);
#4=PRODUCT_CATEGORY_RELATIONSHIP('NONE','NONE',#46,#47);
#5=SHAPE_DEFINITION_REPRESENTATION(#48,#49);
#6= (GEOMETRIC_REPRESENTATION_CONTEXT(3)GLOBAL_UNCERTAINTY_ASSIGNED_CONTEXT((#52))GLOBAL_UNIT_ASSIGNED_CONTEXT((#54,#55,#56))REPRESENTATION_CONTEXT('NONE','WORKSPACE'));
#10=STYLED_ITEM('',(#58),#59);
#11=STYLED_ITEM('',(#60),#61);
#12=STYLED_ITEM('',(#62),#63);
#13=STYLED_ITEM('',(#64),#65);
#14=STYLED_ITEM('',(#66),#67);
#15=STYLED_ITEM('',(#68),#69);
#16=STYLED_ITEM('',(#70),#71);
#17=STYLED_ITEM('',(#72),#73);
#18=STYLED_ITEM('',(#74),#75);
#19=STYLED_ITEM('',(#76),#77);
#20=STYLED_ITEM('',(#78),#79);
#21=STYLED_ITEM('',(#80),#81);
#22=STYLED_ITEM('',(#82),#83);
#23=STYLED_ITEM('',(#84),#85);
#24=STYLED_ITEM('',(#86),#87);
#25=STYLED_ITEM('',(#88),#89);
#26=STYLED_ITEM('',(#90),#91);
#27=STYLED_ITEM('',(#92),#93);
#28=STYLED_ITEM('',(#94),#95);
#29=STYLED_ITEM('',(#96),#97);
#30=STYLED_ITEM('',(#98),#99);
#31=STYLED_ITEM('',(#100),#101);
#32=STYLED_ITEM('',(#102),#103);
#33=STYLED_ITEM('',(#104),#105);
#34=STYLED_ITEM('',(#106),#107);
#35=STYLED_ITEM('',(#108),#109);
#36=STYLED_ITEM('',(#110),#111);
#37=STYLED_ITEM('',(#112),#113);
#38=STYLED_ITEM('',(#114),#115);
#39=STYLED_ITEM('',(#116),#117);
#40=STYLED_ITEM('',(#118),#119);
#41=STYLED_ITEM('',(#120),#121);
#42=STYLED_ITEM('',(#122),#123);
#43=STYLED_ITEM('',(#124),#125);
#44=STYLED_ITEM('',(#126),#127);
#45=APPLICATION_CONTEXT(' ');
#46=PRODUCT_CATEGORY('part','NONE');
#47=PRODUCT_RELATED_PRODUCT_CATEGORY('detail',' ',(#128));
#48=PRODUCT_DEFINITION_SHAPE('NONE','NONE',#129);
#49=ADVANCED_BREP_SHAPE_REPRESENTATION('2018_02_06__20-37-17-743',(#127,#130),#6);
#52=UNCERTAINTY_MEASURE_WITH_UNIT(LENGTH_MEASURE(1.0E-006),#54,'','');
#54= (CONVERSION_BASED_UNIT('MILLIMETRE',#133)LENGTH_UNIT()NAMED_UNIT(#136));
#55= (NAMED_UNIT(#138)PLANE_ANGLE_UNIT()SI_UNIT($,.RADIAN.));
#56= (NAMED_UNIT(#138)SOLID_ANGLE_UNIT()SI_UNIT($,.STERADIAN.));
#58=PRESENTATION_STYLE_ASSIGNMENT((#144));
#59=ADVANCED_FACE('',(#145),#146,.F.);
#60=PRESENTATION_STYLE_ASSIGNMENT((#147));
#61=ADVANCED_FACE('',(#148),#149,.F.);
#62=PRESENTATION_STYLE_ASSIGNMENT((#150));
#63=ADVANCED_FACE('',(#151),#152,.F.);
#64=PRESENTATION_STYLE_ASSIGNMENT((#153));
#65=ADVANCED_FACE('',(#154),#155,.F.);
#66=PRESENTATION_STYLE_ASSIGNMENT((#156));
#67=ADVANCED_FACE('',(#157),#158,.F.);
#68=PRESENTATION_STYLE_ASSIGNMENT((#159));
#69=ADVANCED_FACE('',(#160),#161,.F.);
#70=PRESENTATION_STYLE_ASSIGNMENT((#162));
#71=ADVANCED_FACE('',(#163),#164,.F.);
#72=PRESENTATION_STYLE_ASSIGNMENT((#165));
#73=ADVANCED_FACE('',(#166),#167,.T.);
#74=PRESENTATION_STYLE_ASSIGNMENT((#168));
#75=ADVANCED_FACE('',(#169),#170,.T.);
#76=PRESENTATION_STYLE_ASSIGNMENT((#171));
#77=ADVANCED_FACE('',(#172),#173,.T.);
#78=PRESENTATION_STYLE_ASSIGNMENT((#174));
#79=ADVANCED_FACE('',(#175),#176,.T.);
#80=PRESENTATION_STYLE_ASSIGNMENT((#177));
#81=ADVANCED_FACE('',(#178),#179,.F.);
#82=PRESENTATION_STYLE_ASSIGNMENT((#180));
#83=ADVANCED_FACE('',(#181),#182,.F.);
#84=PRESENTATION_STYLE_ASSIGNMENT((#183));
#85=ADVANCED_FACE('',(#184),#185,.F.);
#86=PRESENTATION_STYLE_ASSIGNMENT((#186));
#87=ADVANCED_FACE('',(#187),#188,.F.);
#88=PRESENTATION_STYLE_ASSIGNMENT((#189));
#89=ADVANCED_FACE('',(#190,#191,#192),#193,.T.);
#90=PRESENTATION_STYLE_ASSIGNMENT((#194));
#91=ADVANCED_FACE('',(#195,#196),#197,.T.);
#92=PRESENTATION_STYLE_ASSIGNMENT((#198));
#93=ADVANCED_FACE('',(#199),#200,.T.);
#94=PRESENTATION_STYLE_ASSIGNMENT((#201));
#95=ADVANCED_FACE('',(#202),#203,.T.);
#96=PRESENTATION_STYLE_ASSIGNMENT((#204));
#97=ADVANCED_FACE('',(#205),#206,.T.);
#98=PRESENTATION_STYLE_ASSIGNMENT((#207));
#99=ADVANCED_FACE('',(#208),#209,.F.);
#100=PRESENTATION_STYLE_ASSIGNMENT((#210));
#101=ADVANCED_FACE('',(#211),#212,.T.);
#102=PRESENTATION_STYLE_ASSIGNMENT((#213));
#103=ADVANCED_FACE('',(#214,#215),#216,.F.);
#104=PRESENTATION_STYLE_ASSIGNMENT((#217));
#105=ADVANCED_FACE('',(#218),#219,.F.);
#106=PRESENTATION_STYLE_ASSIGNMENT((#220));
#107=ADVANCED_FACE('',(#221),#222,.F.);
#108=PRESENTATION_STYLE_ASSIGNMENT((#223));
#109=ADVANCED_FACE('',(#224),#225,.T.);
#110=PRESENTATION_STYLE_ASSIGNMENT((#226));
#111=ADVANCED_FACE('',(#227,#228),#229,.F.);
#112=PRESENTATION_STYLE_ASSIGNMENT((#230));
#113=ADVANCED_FACE('',(#231),#232,.F.);
#114=PRESENTATION_STYLE_ASSIGNMENT((#233));
#115=ADVANCED_FACE('',(#234),#235,.T.);
#116=PRESENTATION_STYLE_ASSIGNMENT((#236));
#117=ADVANCED_FACE('',(#237),#238,.T.);
#118=PRESENTATION_STYLE_ASSIGNMENT((#239));
#119=ADVANCED_FACE('',(#240,#241),#242,.T.);
#120=PRESENTATION_STYLE_ASSIGNMENT((#243));
#121=ADVANCED_FACE('',(#244),#245,.F.);
#122=PRESENTATION_STYLE_ASSIGNMENT((#246));
#123=ADVANCED_FACE('',(#247,#248,#249),#250,.T.);
#124=PRESENTATION_STYLE_ASSIGNMENT((#251));
#125=ADVANCED_FACE('',(#252),#253,.T.);
#126=PRESENTATION_STYLE_ASSIGNMENT((#254));
#127=MANIFOLD_SOLID_BREP('2018_02_06__20-37-17-743',#255);
#128=PRODUCT('2018_02_06__20-37-17-743','2018_02_06__20-37-17-743','PART-2018_02_06__20-37-17-743-DESC',(#256));
#129=PRODUCT_DEFINITION('NONE','NONE',#257,#2);
#130=AXIS2_PLACEMENT_3D('',#258,#259,#260);
#133=LENGTH_MEASURE_WITH_UNIT(LENGTH_MEASURE(1.0),#261);
#136=DIMENSIONAL_EXPONENTS(1.0,0.0,0.0,0.0,0.0,0.0,0.0);
#138=DIMENSIONAL_EXPONENTS(0.0,0.0,0.0,0.0,0.0,0.0,0.0);
#144=SURFACE_STYLE_USAGE(.BOTH.,#262);
#145=FACE_OUTER_BOUND('',#263,.T.);
#146=CYLINDRICAL_SURFACE('',#264,3.0);
#147=SURFACE_STYLE_USAGE(.BOTH.,#265);
#148=FACE_OUTER_BOUND('',#266,.T.);
#149=CYLINDRICAL_SURFACE('',#267,3.0);
#150=SURFACE_STYLE_USAGE(.BOTH.,#268);
#151=FACE_OUTER_BOUND('',#269,.T.);
#152=CONICAL_SURFACE('',#270,2.25,0.785398163397448);
#153=SURFACE_STYLE_USAGE(.BOTH.,#271);
#154=FACE_OUTER_BOUND('',#272,.T.);
#155=CYLINDRICAL_SURFACE('',#273,1.6);
#156=SURFACE_STYLE_USAGE(.BOTH.,#274);
#157=FACE_OUTER_BOUND('',#275,.T.);
#158=CONICAL_SURFACE('',#276,2.25,0.785398163397448);
#159=SURFACE_STYLE_USAGE(.BOTH.,#277);
#160=FACE_OUTER_BOUND('',#278,.T.);
#161=CYLINDRICAL_SURFACE('',#279,1.6);
#162=SURFACE_STYLE_USAGE(.BOTH.,#280);
#163=FACE_OUTER_BOUND('',#281,.T.);
#164=PLANE('',#282);
#165=SURFACE_STYLE_USAGE(.BOTH.,#283);
#166=FACE_OUTER_BOUND('',#284,.T.);
#167=PLANE('',#285);
#168=SURFACE_STYLE_USAGE(.BOTH.,#286);
#169=FACE_OUTER_BOUND('',#287,.T.);
#170=PLANE('',#288);
#171=SURFACE_STYLE_USAGE(.BOTH.,#289);
#172=FACE_OUTER_BOUND('',#290,.T.);
#173=PLANE('',#291);
#174=SURFACE_STYLE_USAGE(.BOTH.,#292);
#175=FACE_OUTER_BOUND('',#293,.T.);
#176=PLANE('',#294);
#177=SURFACE_STYLE_USAGE(.BOTH.,#295);
#178=FACE_OUTER_BOUND('',#296,.T.);
#179=CYLINDRICAL_SURFACE('',#297,1.6);
#180=SURFACE_STYLE_USAGE(.BOTH.,#298);
#181=FACE_OUTER_BOUND('',#299,.T.);
#182=CONICAL_SURFACE('',#300,2.25,0.785398163397448);
#183=SURFACE_STYLE_USAGE(.BOTH.,#301);
#184=FACE_OUTER_BOUND('',#302,.T.);
#185=CYLINDRICAL_SURFACE('',#303,1.6);
#186=SURFACE_STYLE_USAGE(.BOTH.,#304);
#187=FACE_OUTER_BOUND('',#305,.T.);
#188=CONICAL_SURFACE('',#306,2.25,0.785398163397448);
#189=SURFACE_STYLE_USAGE(.BOTH.,#307);
#190=FACE_OUTER_BOUND('',#308,.T.);
#191=FACE_BOUND('',#309,.T.);
#192=FACE_BOUND('',#310,.T.);
#193=PLANE('',#311);
#194=SURFACE_STYLE_USAGE(.BOTH.,#312);
#195=FACE_OUTER_BOUND('',#313,.T.);
#196=FACE_BOUND('',#314,.T.);
#197=PLANE('',#315);
#198=SURFACE_STYLE_USAGE(.BOTH.,#316);
#199=FACE_OUTER_BOUND('',#317,.T.);
#200=PLANE('',#318);
#201=SURFACE_STYLE_USAGE(.BOTH.,#319);
#202=FACE_OUTER_BOUND('',#320,.T.);
#203=PLANE('',#321);
#204=SURFACE_STYLE_USAGE(.BOTH.,#322);
#205=FACE_OUTER_BOUND('',#323,.T.);
#206=PLANE('',#324);
#207=SURFACE_STYLE_USAGE(.BOTH.,#325);
#208=FACE_OUTER_BOUND('',#326,.T.);
#209=PLANE('',#327);
#210=SURFACE_STYLE_USAGE(.BOTH.,#328);
#211=FACE_OUTER_BOUND('',#329,.T.);
#212=PLANE('',#330);
#213=SURFACE_STYLE_USAGE(.BOTH.,#331);
#214=FACE_BOUND('',#332,.T.);
#215=FACE_OUTER_BOUND('',#333,.T.);
#216=PLANE('',#334);
#217=SURFACE_STYLE_USAGE(.BOTH.,#335);
#218=FACE_OUTER_BOUND('',#336,.T.);
#219=CYLINDRICAL_SURFACE('',#337,3.0);
#220=SURFACE_STYLE_USAGE(.BOTH.,#338);
#221=FACE_OUTER_BOUND('',#339,.T.);
#222=PLANE('',#340);
#223=SURFACE_STYLE_USAGE(.BOTH.,#341);
#224=FACE_OUTER_BOUND('',#342,.T.);
#225=PLANE('',#343);
#226=SURFACE_STYLE_USAGE(.BOTH.,#344);
#227=FACE_OUTER_BOUND('',#345,.T.);
#228=FACE_BOUND('',#346,.T.);
#229=PLANE('',#347);
#230=SURFACE_STYLE_USAGE(.BOTH.,#348);
#231=FACE_OUTER_BOUND('',#349,.T.);
#232=CYLINDRICAL_SURFACE('',#350,3.0);
#233=SURFACE_STYLE_USAGE(.BOTH.,#351);
#234=FACE_OUTER_BOUND('',#352,.T.);
#235=PLANE('',#353);
#236=SURFACE_STYLE_USAGE(.BOTH.,#354);
#237=FACE_OUTER_BOUND('',#355,.T.);
#238=PLANE('',#356);
#239=SURFACE_STYLE_USAGE(.BOTH.,#357);
#240=FACE_BOUND('',#358,.T.);
#241=FACE_OUTER_BOUND('',#359,.T.);
#242=PLANE('',#360);
#243=SURFACE_STYLE_USAGE(.BOTH.,#361);
#244=FACE_OUTER_BOUND('',#362,.T.);
#245=PLANE('',#363);
#246=SURFACE_STYLE_USAGE(.BOTH.,#364);
#247=FACE_BOUND('',#365,.T.);
#248=FACE_BOUND('',#366,.T.);
#249=FACE_OUTER_BOUND('',#367,.T.);
#250=PLANE('',#368);
#251=SURFACE_STYLE_USAGE(.BOTH.,#369);
#252=FACE_OUTER_BOUND('',#370,.T.);
#253=PLANE('',#371);
#254=SURFACE_STYLE_USAGE(.BOTH.,#372);
#255=CLOSED_SHELL('',(#59,#61,#63,#65,#67,#69,#71,#73,#75,#77,#79,#81,#83,#85,#87,#89,#91,#93,#95,#97,#99,#101,#103,#105,#107,#109,#111,#113,#115,#117,#119,#121,#123,#125));
#256=PRODUCT_CONTEXT('',#45,'mechanical');
#257=PRODUCT_DEFINITION_FORMATION_WITH_SPECIFIED_SOURCE(' ','NONE',#128,.NOT_KNOWN.);
#258=CARTESIAN_POINT('',(0.0,0.0,0.0));
#259=DIRECTION('',(0.0,0.0,1.0));
#260=DIRECTION('',(1.0,0.0,0.0));
#261= (NAMED_UNIT(#136)LENGTH_UNIT()SI_UNIT(.MILLI.,.METRE.));
#262=SURFACE_SIDE_STYLE('',(#374));
#263=EDGE_LOOP('',(#375,#376,#377,#378));
#264=AXIS2_PLACEMENT_3D('',#379,#380,#381);
#265=SURFACE_SIDE_STYLE('',(#382));
#266=EDGE_LOOP('',(#383,#384,#385,#386));
#267=AXIS2_PLACEMENT_3D('',#387,#388,#389);
#268=SURFACE_SIDE_STYLE('',(#390));
#269=EDGE_LOOP('',(#391,#392,#393,#394));
#270=AXIS2_PLACEMENT_3D('',#395,#396,#397);
#271=SURFACE_SIDE_STYLE('',(#398));
#272=EDGE_LOOP('',(#399,#400,#401,#402));
#273=AXIS2_PLACEMENT_3D('',#403,#404,#405);
#274=SURFACE_SIDE_STYLE('',(#406));
#275=EDGE_LOOP('',(#407,#408,#409,#410));
#276=AXIS2_PLACEMENT_3D('',#411,#412,#413);
#277=SURFACE_SIDE_STYLE('',(#414));
#278=EDGE_LOOP('',(#415,#416,#417,#418));
#279=AXIS2_PLACEMENT_3D('',#419,#420,#421);
#280=SURFACE_SIDE_STYLE('',(#422));
#281=EDGE_LOOP('',(#423,#424,#425,#426));
#282=AXIS2_PLACEMENT_3D('',#427,#428,#429);
#283=SURFACE_SIDE_STYLE('',(#430));
#284=EDGE_LOOP('',(#431,#432,#433,#434));
#285=AXIS2_PLACEMENT_3D('',#435,#436,#437);
#286=SURFACE_SIDE_STYLE('',(#438));
#287=EDGE_LOOP('',(#439,#440,#441,#442));
#288=AXIS2_PLACEMENT_3D('',#443,#444,#445);
#289=SURFACE_SIDE_STYLE('',(#446));
#290=EDGE_LOOP('',(#447,#448,#449,#450));
#291=AXIS2_PLACEMENT_3D('',#451,#452,#453);
#292=SURFACE_SIDE_STYLE('',(#454));
#293=EDGE_LOOP('',(#455,#456,#457,#458));
#294=AXIS2_PLACEMENT_3D('',#459,#460,#461);
#295=SURFACE_SIDE_STYLE('',(#462));
#296=EDGE_LOOP('',(#463,#464,#465,#466));
#297=AXIS2_PLACEMENT_3D('',#467,#468,#469);
#298=SURFACE_SIDE_STYLE('',(#470));
#299=EDGE_LOOP('',(#471,#472,#473,#474));
#300=AXIS2_PLACEMENT_3D('',#475,#476,#477);
#301=SURFACE_SIDE_STYLE('',(#478));
#302=EDGE_LOOP('',(#479,#480,#481,#482));
#303=AXIS2_PLACEMENT_3D('',#483,#484,#485);
#304=SURFACE_SIDE_STYLE('',(#486));
#305=EDGE_LOOP('',(#487,#488,#489,#490));
#306=AXIS2_PLACEMENT_3D('',#491,#492,#493);
#307=SURFACE_SIDE_STYLE('',(#494));
#308=EDGE_LOOP('',(#495,#496,#497,#498,#499,#500,#501,#502,#503,#504,#505,#506));
#309=EDGE_LOOP('',(#507,#508));
#310=EDGE_LOOP('',(#509,#510));
#311=AXIS2_PLACEMENT_3D('',#511,#512,#513);
#312=SURFACE_SIDE_STYLE('',(#514));
#313=EDGE_LOOP('',(#515,#516,#517,#518,#519,#520,#521));
#314=EDGE_LOOP('',(#522,#523));
#315=AXIS2_PLACEMENT_3D('',#524,#525,#526);
#316=SURFACE_SIDE_STYLE('',(#527));
#317=EDGE_LOOP('',(#528,#529,#530,#531));
#318=AXIS2_PLACEMENT_3D('',#532,#533,#534);
#319=SURFACE_SIDE_STYLE('',(#535));
#320=EDGE_LOOP('',(#536,#537,#538,#539));
#321=AXIS2_PLACEMENT_3D('',#540,#541,#542);
#322=SURFACE_SIDE_STYLE('',(#543));
#323=EDGE_LOOP('',(#544,#545,#546,#547,#548,#549));
#324=AXIS2_PLACEMENT_3D('',#550,#551,#552);
#325=SURFACE_SIDE_STYLE('',(#553));
#326=EDGE_LOOP('',(#554,#555,#556,#557));
#327=AXIS2_PLACEMENT_3D('',#558,#559,#560);
#328=SURFACE_SIDE_STYLE('',(#561));
#329=EDGE_LOOP('',(#562,#563,#564,#565));
#330=AXIS2_PLACEMENT_3D('',#566,#567,#568);
#331=SURFACE_SIDE_STYLE('',(#569));
#332=EDGE_LOOP('',(#570,#571));
#333=EDGE_LOOP('',(#572,#573,#574,#575,#576));
#334=AXIS2_PLACEMENT_3D('',#577,#578,#579);
#335=SURFACE_SIDE_STYLE('',(#580));
#336=EDGE_LOOP('',(#581,#582,#583,#584));
#337=AXIS2_PLACEMENT_3D('',#585,#586,#587);
#338=SURFACE_SIDE_STYLE('',(#588));
#339=EDGE_LOOP('',(#589,#590,#591,#592));
#340=AXIS2_PLACEMENT_3D('',#593,#594,#595);
#341=SURFACE_SIDE_STYLE('',(#596));
#342=EDGE_LOOP('',(#597,#598,#599,#600));
#343=AXIS2_PLACEMENT_3D('',#601,#602,#603);
#344=SURFACE_SIDE_STYLE('',(#604));
#345=EDGE_LOOP('',(#605,#606,#607,#608,#609,#610,#611));
#346=EDGE_LOOP('',(#612,#613));
#347=AXIS2_PLACEMENT_3D('',#614,#615,#616);
#348=SURFACE_SIDE_STYLE('',(#617));
#349=EDGE_LOOP('',(#618,#619,#620,#621));
#350=AXIS2_PLACEMENT_3D('',#622,#623,#624);
#351=SURFACE_SIDE_STYLE('',(#625));
#352=EDGE_LOOP('',(#626,#627,#628,#629));
#353=AXIS2_PLACEMENT_3D('',#630,#631,#632);
#354=SURFACE_SIDE_STYLE('',(#633));
#355=EDGE_LOOP('',(#634,#635,#636,#637,#638,#639,#640,#641));
#356=AXIS2_PLACEMENT_3D('',#642,#643,#644);
#357=SURFACE_SIDE_STYLE('',(#645));
#358=EDGE_LOOP('',(#646,#647));
#359=EDGE_LOOP('',(#648,#649,#650,#651,#652));
#360=AXIS2_PLACEMENT_3D('',#653,#654,#655);
#361=SURFACE_SIDE_STYLE('',(#656));
#362=EDGE_LOOP('',(#657,#658,#659,#660));
#363=AXIS2_PLACEMENT_3D('',#661,#662,#663);
#364=SURFACE_SIDE_STYLE('',(#664));
#365=EDGE_LOOP('',(#665,#666));
#366=EDGE_LOOP('',(#667,#668));
#367=EDGE_LOOP('',(#669,#670,#671,#672,#673,#674,#675,#676,#677,#678,#679,#680));
#368=AXIS2_PLACEMENT_3D('',#681,#682,#683);
#369=SURFACE_SIDE_STYLE('',(#684));
#370=EDGE_LOOP('',(#685,#686,#687,#688,#689,#690));
#371=AXIS2_PLACEMENT_3D('',#691,#692,#693);
#372=SURFACE_SIDE_STYLE('',(#694));
#374=SURFACE_STYLE_FILL_AREA(#695);
#375=ORIENTED_EDGE('',*,*,#696,.F.);
#376=ORIENTED_EDGE('',*,*,#697,.F.);
#377=ORIENTED_EDGE('',*,*,#698,.F.);
#378=ORIENTED_EDGE('',*,*,#699,.F.);
#379=CARTESIAN_POINT('',(-503.0,10.0,56.0));
#380=DIRECTION('',(0.0,-1.0,0.0));
#381=DIRECTION('',(1.0,0.0,0.0));
#382=SURFACE_STYLE_FILL_AREA(#700);
#383=ORIENTED_EDGE('',*,*,#701,.F.);
#384=ORIENTED_EDGE('',*,*,#702,.F.);
#385=ORIENTED_EDGE('',*,*,#703,.F.);
#386=ORIENTED_EDGE('',*,*,#704,.F.);
#387=CARTESIAN_POINT('',(-503.0,10.0,56.0));
#388=DIRECTION('',(0.0,-1.0,0.0));
#389=DIRECTION('',(1.0,0.0,0.0));
#390=SURFACE_STYLE_FILL_AREA(#705);
#391=ORIENTED_EDGE('',*,*,#706,.F.);
#392=ORIENTED_EDGE('',*,*,#707,.F.);
#393=ORIENTED_EDGE('',*,*,#708,.F.);
#394=ORIENTED_EDGE('',*,*,#709,.F.);
#395=CARTESIAN_POINT('',(-485.0,10.0,62.15));
#396=DIRECTION('',(0.0,-0.0,-1.0));
#397=DIRECTION('',(1.0,0.0,0.0));
#398=SURFACE_STYLE_FILL_AREA(#710);
#399=ORIENTED_EDGE('',*,*,#711,.F.);
#400=ORIENTED_EDGE('',*,*,#709,.T.);
#401=ORIENTED_EDGE('',*,*,#712,.F.);
#402=ORIENTED_EDGE('',*,*,#713,.F.);
#403=CARTESIAN_POINT('',(-485.0,10.0,63.15));
#404=DIRECTION('',(0.0,0.0,-1.0));
#405=DIRECTION('',(1.0,0.0,0.0));
#406=SURFACE_STYLE_FILL_AREA(#714);
#407=ORIENTED_EDGE('',*,*,#715,.F.);
#408=ORIENTED_EDGE('',*,*,#716,.F.);
#409=ORIENTED_EDGE('',*,*,#717,.F.);
#410=ORIENTED_EDGE('',*,*,#718,.F.);
#411=CARTESIAN_POINT('',(-493.0,10.0,62.15));
#412=DIRECTION('',(0.0,-0.0,-1.0));
#413=DIRECTION('',(1.0,0.0,0.0));
#414=SURFACE_STYLE_FILL_AREA(#719);
#415=ORIENTED_EDGE('',*,*,#720,.F.);
#416=ORIENTED_EDGE('',*,*,#718,.T.);
#417=ORIENTED_EDGE('',*,*,#721,.F.);
#418=ORIENTED_EDGE('',*,*,#722,.F.);
#419=CARTESIAN_POINT('',(-493.0,10.0,63.15));
#420=DIRECTION('',(0.0,0.0,-1.0));
#421=DIRECTION('',(1.0,0.0,0.0));
#422=SURFACE_STYLE_FILL_AREA(#723);
#423=ORIENTED_EDGE('',*,*,#724,.F.);
#424=ORIENTED_EDGE('',*,*,#725,.F.);
#425=ORIENTED_EDGE('',*,*,#726,.F.);
#426=ORIENTED_EDGE('',*,*,#727,.F.);
#427=CARTESIAN_POINT('',(-499.25,0.0,59.75));
#428=DIRECTION('',(-0.0,1.0,0.0));
#429=DIRECTION('',(1.0,0.0,0.0));
#430=SURFACE_STYLE_FILL_AREA(#728);
#431=ORIENTED_EDGE('',*,*,#729,.F.);
#432=ORIENTED_EDGE('',*,*,#730,.F.);
#433=ORIENTED_EDGE('',*,*,#731,.F.);
#434=ORIENTED_EDGE('',*,*,#725,.T.);
#435=CARTESIAN_POINT('',(-495.5,-0.875,59.75));
#436=DIRECTION('',(-1.0,0.0,0.0));
#437=DIRECTION('',(0.0,1.0,0.0));
#438=SURFACE_STYLE_FILL_AREA(#732);
#439=ORIENTED_EDGE('',*,*,#727,.T.);
#440=ORIENTED_EDGE('',*,*,#733,.F.);
#441=ORIENTED_EDGE('',*,*,#734,.T.);
#442=ORIENTED_EDGE('',*,*,#735,.T.);
#443=CARTESIAN_POINT('',(-497.0,21.75,62.5));
#444=DIRECTION('',(-1.0,-0.0,-0.0));
#445=DIRECTION('',(0.0,0.0,-1.0));
#446=SURFACE_STYLE_FILL_AREA(#736);
#447=ORIENTED_EDGE('',*,*,#734,.F.);
#448=ORIENTED_EDGE('',*,*,#737,.F.);
#449=ORIENTED_EDGE('',*,*,#738,.F.);
#450=ORIENTED_EDGE('',*,*,#739,.F.);
#451=CARTESIAN_POINT('',(-499.25,20.0,59.75));
#452=DIRECTION('',(-0.0,1.0,0.0));
#453=DIRECTION('',(1.0,0.0,0.0));
#454=SURFACE_STYLE_FILL_AREA(#740);
#455=ORIENTED_EDGE('',*,*,#741,.F.);
#456=ORIENTED_EDGE('',*,*,#738,.T.);
#457=ORIENTED_EDGE('',*,*,#742,.F.);
#458=ORIENTED_EDGE('',*,*,#743,.F.);
#459=CARTESIAN_POINT('',(-495.5,20.875,59.75));
#460=DIRECTION('',(-1.0,0.0,0.0));
#461=DIRECTION('',(0.0,1.0,0.0));
#462=SURFACE_STYLE_FILL_AREA(#744);
#463=ORIENTED_EDGE('',*,*,#720,.T.);
#464=ORIENTED_EDGE('',*,*,#745,.F.);
#465=ORIENTED_EDGE('',*,*,#721,.T.);
#466=ORIENTED_EDGE('',*,*,#746,.T.);
#467=CARTESIAN_POINT('',(-493.0,10.0,63.15));
#468=DIRECTION('',(0.0,0.0,-1.0));
#469=DIRECTION('',(1.0,0.0,0.0));
#470=SURFACE_STYLE_FILL_AREA(#747);
#471=ORIENTED_EDGE('',*,*,#715,.T.);
#472=ORIENTED_EDGE('',*,*,#746,.F.);
#473=ORIENTED_EDGE('',*,*,#717,.T.);
#474=ORIENTED_EDGE('',*,*,#748,.F.);
#475=CARTESIAN_POINT('',(-493.0,10.0,62.15));
#476=DIRECTION('',(0.0,-0.0,-1.0));
#477=DIRECTION('',(1.0,0.0,0.0));
#478=SURFACE_STYLE_FILL_AREA(#749);
#479=ORIENTED_EDGE('',*,*,#711,.T.);
#480=ORIENTED_EDGE('',*,*,#750,.F.);
#481=ORIENTED_EDGE('',*,*,#712,.T.);
#482=ORIENTED_EDGE('',*,*,#751,.T.);
#483=CARTESIAN_POINT('',(-485.0,10.0,63.15));
#484=DIRECTION('',(0.0,0.0,-1.0));
#485=DIRECTION('',(1.0,0.0,0.0));
#486=SURFACE_STYLE_FILL_AREA(#752);
#487=ORIENTED_EDGE('',*,*,#706,.T.);
#488=ORIENTED_EDGE('',*,*,#751,.F.);
#489=ORIENTED_EDGE('',*,*,#708,.T.);
#490=ORIENTED_EDGE('',*,*,#753,.F.);
#491=CARTESIAN_POINT('',(-485.0,10.0,62.15));
#492=DIRECTION('',(0.0,-0.0,-1.0));
#493=DIRECTION('',(1.0,0.0,0.0));
#494=SURFACE_STYLE_FILL_AREA(#754);
#495=ORIENTED_EDGE('',*,*,#724,.T.);
#496=ORIENTED_EDGE('',*,*,#735,.F.);
#497=ORIENTED_EDGE('',*,*,#739,.T.);
#498=ORIENTED_EDGE('',*,*,#741,.T.);
#499=ORIENTED_EDGE('',*,*,#755,.F.);
#500=ORIENTED_EDGE('',*,*,#756,.F.);
#501=ORIENTED_EDGE('',*,*,#757,.F.);
#502=ORIENTED_EDGE('',*,*,#758,.T.);
#503=ORIENTED_EDGE('',*,*,#759,.F.);
#504=ORIENTED_EDGE('',*,*,#760,.F.);
#505=ORIENTED_EDGE('',*,*,#761,.F.);
#506=ORIENTED_EDGE('',*,*,#729,.T.);
#507=ORIENTED_EDGE('',*,*,#748,.T.);
#508=ORIENTED_EDGE('',*,*,#716,.T.);
#509=ORIENTED_EDGE('',*,*,#753,.T.);
#510=ORIENTED_EDGE('',*,*,#707,.T.);
#511=CARTESIAN_POINT('',(-489.0,21.75,61.5));
#512=DIRECTION('',(0.0,0.0,-1.0));
#513=DIRECTION('',(1.0,0.0,0.0));
#514=SURFACE_STYLE_FILL_AREA(#762);
#515=ORIENTED_EDGE('',*,*,#730,.T.);
#516=ORIENTED_EDGE('',*,*,#761,.T.);
#517=ORIENTED_EDGE('',*,*,#763,.F.);
#518=ORIENTED_EDGE('',*,*,#764,.F.);
#519=ORIENTED_EDGE('',*,*,#765,.F.);
#520=ORIENTED_EDGE('',*,*,#766,.F.);
#521=ORIENTED_EDGE('',*,*,#767,.F.);
#522=ORIENTED_EDGE('',*,*,#768,.T.);
#523=ORIENTED_EDGE('',*,*,#704,.T.);
#524=CARTESIAN_POINT('',(-501.25,-1.75,56.0));
#525=DIRECTION('',(-0.0,1.0,0.0));
#526=DIRECTION('',(1.0,0.0,0.0));
#527=SURFACE_STYLE_FILL_AREA(#769);
#528=ORIENTED_EDGE('',*,*,#760,.T.);
#529=ORIENTED_EDGE('',*,*,#770,.T.);
#530=ORIENTED_EDGE('',*,*,#771,.F.);
#531=ORIENTED_EDGE('',*,*,#763,.T.);
#532=CARTESIAN_POINT('',(-492.0,10.0,56.0));
#533=DIRECTION('',(-1.0,0.0,0.0));
#534=DIRECTION('',(0.0,1.0,0.0));
#535=SURFACE_STYLE_FILL_AREA(#772);
#536=ORIENTED_EDGE('',*,*,#759,.T.);
#537=ORIENTED_EDGE('',*,*,#773,.F.);
#538=ORIENTED_EDGE('',*,*,#774,.F.);
#539=ORIENTED_EDGE('',*,*,#770,.F.);
#540=CARTESIAN_POINT('',(-493.5,0.0,56.0));
#541=DIRECTION('',(-0.0,1.0,0.0));
#542=DIRECTION('',(1.0,0.0,0.0));
#543=SURFACE_STYLE_FILL_AREA(#775);
#544=ORIENTED_EDGE('',*,*,#774,.T.);
#545=ORIENTED_EDGE('',*,*,#776,.T.);
#546=ORIENTED_EDGE('',*,*,#777,.T.);
#547=ORIENTED_EDGE('',*,*,#778,.F.);
#548=ORIENTED_EDGE('',*,*,#764,.T.);
#549=ORIENTED_EDGE('',*,*,#771,.T.);
#550=CARTESIAN_POINT('',(-487.0,23.5,51.96410161515));
#551=DIRECTION('',(0.500000000001326,0.0,-0.866025403783673));
#552=DIRECTION('',(0.866025403783673,0.0,0.500000000001326));
#553=SURFACE_STYLE_FILL_AREA(#779);
#554=ORIENTED_EDGE('',*,*,#766,.T.);
#555=ORIENTED_EDGE('',*,*,#780,.T.);
#556=ORIENTED_EDGE('',*,*,#781,.F.);
#557=ORIENTED_EDGE('',*,*,#782,.F.);
#558=CARTESIAN_POINT('',(-510.5,10.0,56.0));
#559=DIRECTION('',(1.0,0.0,0.0));
#560=DIRECTION('',(0.0,-1.0,0.0));
#561=SURFACE_STYLE_FILL_AREA(#783);
#562=ORIENTED_EDGE('',*,*,#765,.T.);
#563=ORIENTED_EDGE('',*,*,#778,.T.);
#564=ORIENTED_EDGE('',*,*,#784,.T.);
#565=ORIENTED_EDGE('',*,*,#780,.F.);
#566=CARTESIAN_POINT('',(-498.0,23.5,48.5));
#567=DIRECTION('',(0.0,0.0,-1.0));
#568=DIRECTION('',(1.0,0.0,0.0));
#569=SURFACE_STYLE_FILL_AREA(#785);
#570=ORIENTED_EDGE('',*,*,#786,.T.);
#571=ORIENTED_EDGE('',*,*,#702,.T.);
#572=ORIENTED_EDGE('',*,*,#787,.T.);
#573=ORIENTED_EDGE('',*,*,#781,.T.);
#574=ORIENTED_EDGE('',*,*,#784,.F.);
#575=ORIENTED_EDGE('',*,*,#777,.F.);
#576=ORIENTED_EDGE('',*,*,#788,.F.);
#577=CARTESIAN_POINT('',(-495.388040730018,-3.5,56.8005982343361));
#578=DIRECTION('',(-0.0,1.0,0.0));
#579=DIRECTION('',(1.0,0.0,0.0));
#580=SURFACE_STYLE_FILL_AREA(#789);
#581=ORIENTED_EDGE('',*,*,#701,.T.);
#582=ORIENTED_EDGE('',*,*,#768,.F.);
#583=ORIENTED_EDGE('',*,*,#703,.T.);
#584=ORIENTED_EDGE('',*,*,#786,.F.);
#585=CARTESIAN_POINT('',(-503.0,10.0,56.0));
#586=DIRECTION('',(0.0,-1.0,0.0));
#587=DIRECTION('',(1.0,0.0,0.0));
#588=SURFACE_STYLE_FILL_AREA(#790);
#589=ORIENTED_EDGE('',*,*,#757,.T.);
#590=ORIENTED_EDGE('',*,*,#791,.F.);
#591=ORIENTED_EDGE('',*,*,#792,.F.);
#592=ORIENTED_EDGE('',*,*,#793,.F.);
#593=CARTESIAN_POINT('',(-493.5,20.0,56.0));
#594=DIRECTION('',(-0.0,1.0,0.0));
#595=DIRECTION('',(1.0,0.0,0.0));
#596=SURFACE_STYLE_FILL_AREA(#794);
#597=ORIENTED_EDGE('',*,*,#756,.T.);
#598=ORIENTED_EDGE('',*,*,#795,.T.);
#599=ORIENTED_EDGE('',*,*,#796,.F.);
#600=ORIENTED_EDGE('',*,*,#791,.T.);
#601=CARTESIAN_POINT('',(-492.0,10.0,56.0));
#602=DIRECTION('',(-1.0,0.0,0.0));
#603=DIRECTION('',(0.0,1.0,0.0));
#604=SURFACE_STYLE_FILL_AREA(#797);
#605=ORIENTED_EDGE('',*,*,#755,.T.);
#606=ORIENTED_EDGE('',*,*,#743,.T.);
#607=ORIENTED_EDGE('',*,*,#798,.F.);
#608=ORIENTED_EDGE('',*,*,#799,.F.);
#609=ORIENTED_EDGE('',*,*,#800,.F.);
#610=ORIENTED_EDGE('',*,*,#801,.F.);
#611=ORIENTED_EDGE('',*,*,#795,.F.);
#612=ORIENTED_EDGE('',*,*,#697,.T.);
#613=ORIENTED_EDGE('',*,*,#802,.T.);
#614=CARTESIAN_POINT('',(-501.25,21.75,56.0));
#615=DIRECTION('',(-0.0,1.0,0.0));
#616=DIRECTION('',(1.0,0.0,0.0));
#617=SURFACE_STYLE_FILL_AREA(#803);
#618=ORIENTED_EDGE('',*,*,#696,.T.);
#619=ORIENTED_EDGE('',*,*,#804,.F.);
#620=ORIENTED_EDGE('',*,*,#698,.T.);
#621=ORIENTED_EDGE('',*,*,#802,.F.);
#622=CARTESIAN_POINT('',(-503.0,10.0,56.0));
#623=DIRECTION('',(0.0,-1.0,0.0));
#624=DIRECTION('',(1.0,0.0,0.0));
#625=SURFACE_STYLE_FILL_AREA(#805);
#626=ORIENTED_EDGE('',*,*,#800,.T.);
#627=ORIENTED_EDGE('',*,*,#806,.F.);
#628=ORIENTED_EDGE('',*,*,#807,.F.);
#629=ORIENTED_EDGE('',*,*,#808,.T.);
#630=CARTESIAN_POINT('',(-498.0,23.5,48.5));
#631=DIRECTION('',(0.0,0.0,-1.0));
#632=DIRECTION('',(1.0,0.0,0.0));
#633=SURFACE_STYLE_FILL_AREA(#809);
#634=ORIENTED_EDGE('',*,*,#810,.T.);
#635=ORIENTED_EDGE('',*,*,#788,.T.);
#636=ORIENTED_EDGE('',*,*,#776,.F.);
#637=ORIENTED_EDGE('',*,*,#773,.T.);
#638=ORIENTED_EDGE('',*,*,#758,.F.);
#639=ORIENTED_EDGE('',*,*,#793,.T.);
#640=ORIENTED_EDGE('',*,*,#811,.F.);
#641=ORIENTED_EDGE('',*,*,#812,.F.);
#642=CARTESIAN_POINT('',(-481.0,23.5,59.46410161515));
#643=DIRECTION('',(1.0,0.0,0.0));
#644=DIRECTION('',(0.0,-0.0,1.0));
#645=SURFACE_STYLE_FILL_AREA(#813);
#646=ORIENTED_EDGE('',*,*,#699,.T.);
#647=ORIENTED_EDGE('',*,*,#804,.T.);
#648=ORIENTED_EDGE('',*,*,#807,.T.);
#649=ORIENTED_EDGE('',*,*,#814,.T.);
#650=ORIENTED_EDGE('',*,*,#815,.T.);
#651=ORIENTED_EDGE('',*,*,#812,.T.);
#652=ORIENTED_EDGE('',*,*,#816,.T.);
#653=CARTESIAN_POINT('',(-495.388040730018,23.5,56.8005982343361));
#654=DIRECTION('',(-0.0,1.0,0.0));
#655=DIRECTION('',(1.0,0.0,0.0));
#656=SURFACE_STYLE_FILL_AREA(#817);
#657=ORIENTED_EDGE('',*,*,#799,.T.);
#658=ORIENTED_EDGE('',*,*,#818,.F.);
#659=ORIENTED_EDGE('',*,*,#814,.F.);
#660=ORIENTED_EDGE('',*,*,#806,.T.);
#661=CARTESIAN_POINT('',(-510.5,10.0,56.0));
#662=DIRECTION('',(1.0,0.0,0.0));
#663=DIRECTION('',(0.0,-1.0,0.0));
#664=SURFACE_STYLE_FILL_AREA(#819);
#665=ORIENTED_EDGE('',*,*,#722,.T.);
#666=ORIENTED_EDGE('',*,*,#745,.T.);
#667=ORIENTED_EDGE('',*,*,#713,.T.);
#668=ORIENTED_EDGE('',*,*,#750,.T.);
#669=ORIENTED_EDGE('',*,*,#810,.F.);
#670=ORIENTED_EDGE('',*,*,#815,.F.);
#671=ORIENTED_EDGE('',*,*,#818,.T.);
#672=ORIENTED_EDGE('',*,*,#798,.T.);
#673=ORIENTED_EDGE('',*,*,#742,.T.);
#674=ORIENTED_EDGE('',*,*,#737,.T.);
#675=ORIENTED_EDGE('',*,*,#733,.T.);
#676=ORIENTED_EDGE('',*,*,#726,.T.);
#677=ORIENTED_EDGE('',*,*,#731,.T.);
#678=ORIENTED_EDGE('',*,*,#767,.T.);
#679=ORIENTED_EDGE('',*,*,#782,.T.);
#680=ORIENTED_EDGE('',*,*,#787,.F.);
#681=CARTESIAN_POINT('',(-492.0,23.5,63.5));
#682=DIRECTION('',(0.0,0.0,1.0));
#683=DIRECTION('',(-1.0,-0.0,0.0));
#684=SURFACE_STYLE_FILL_AREA(#820);
#685=ORIENTED_EDGE('',*,*,#792,.T.);
#686=ORIENTED_EDGE('',*,*,#796,.T.);
#687=ORIENTED_EDGE('',*,*,#801,.T.);
#688=ORIENTED_EDGE('',*,*,#808,.F.);
#689=ORIENTED_EDGE('',*,*,#816,.F.);
#690=ORIENTED_EDGE('',*,*,#811,.T.);
#691=CARTESIAN_POINT('',(-487.0,23.5,51.96410161515));
#692=DIRECTION('',(0.500000000001326,0.0,-0.866025403783673));
#693=DIRECTION('',(0.866025403783673,0.0,0.500000000001326));
#694=SURFACE_STYLE_FILL_AREA(#821);
#695=FILL_AREA_STYLE('',(#822));
#696=EDGE_CURVE('',#823,#824,#825,.T.);
#697=EDGE_CURVE('',#826,#823,#827,.T.);
#698=EDGE_CURVE('',#828,#826,#829,.T.);
#699=EDGE_CURVE('',#824,#828,#830,.T.);
#700=FILL_AREA_STYLE('',(#831));
#701=EDGE_CURVE('',#832,#833,#834,.T.);
#702=EDGE_CURVE('',#835,#832,#836,.T.);
#703=EDGE_CURVE('',#837,#835,#838,.T.);
#704=EDGE_CURVE('',#833,#837,#839,.T.);
#705=FILL_AREA_STYLE('',(#840));
#706=EDGE_CURVE('',#841,#842,#843,.T.);
#707=EDGE_CURVE('',#844,#841,#845,.T.);
#708=EDGE_CURVE('',#846,#844,#847,.T.);
#709=EDGE_CURVE('',#842,#846,#848,.T.);
#710=FILL_AREA_STYLE('',(#849));
#711=EDGE_CURVE('',#842,#850,#851,.T.);
#712=EDGE_CURVE('',#852,#846,#853,.T.);
#713=EDGE_CURVE('',#850,#852,#854,.T.);
#714=FILL_AREA_STYLE('',(#855));
#715=EDGE_CURVE('',#856,#857,#858,.T.);
#716=EDGE_CURVE('',#859,#856,#860,.T.);
#717=EDGE_CURVE('',#861,#859,#862,.T.);
#718=EDGE_CURVE('',#857,#861,#863,.T.);
#719=FILL_AREA_STYLE('',(#864));
#720=EDGE_CURVE('',#857,#865,#866,.T.);
#721=EDGE_CURVE('',#867,#861,#868,.T.);
#722=EDGE_CURVE('',#865,#867,#869,.T.);
#723=FILL_AREA_STYLE('',(#870));
#724=EDGE_CURVE('',#871,#872,#873,.T.);
#725=EDGE_CURVE('',#874,#871,#875,.T.);
#726=EDGE_CURVE('',#876,#874,#877,.T.);
#727=EDGE_CURVE('',#872,#876,#878,.T.);
#728=FILL_AREA_STYLE('',(#879));
#729=EDGE_CURVE('',#880,#871,#881,.T.);
#730=EDGE_CURVE('',#882,#880,#883,.T.);
#731=EDGE_CURVE('',#874,#882,#884,.T.);
#732=FILL_AREA_STYLE('',(#885));
#733=EDGE_CURVE('',#886,#876,#887,.T.);
#734=EDGE_CURVE('',#886,#888,#889,.T.);
#735=EDGE_CURVE('',#888,#872,#890,.T.);
#736=FILL_AREA_STYLE('',(#891));
#737=EDGE_CURVE('',#892,#886,#893,.T.);
#738=EDGE_CURVE('',#894,#892,#895,.T.);
#739=EDGE_CURVE('',#888,#894,#896,.T.);
#740=FILL_AREA_STYLE('',(#897));
#741=EDGE_CURVE('',#894,#898,#899,.T.);
#742=EDGE_CURVE('',#900,#892,#901,.T.);
#743=EDGE_CURVE('',#898,#900,#902,.T.);
#744=FILL_AREA_STYLE('',(#903));
#745=EDGE_CURVE('',#867,#865,#904,.T.);
#746=EDGE_CURVE('',#861,#857,#905,.T.);
#747=FILL_AREA_STYLE('',(#906));
#748=EDGE_CURVE('',#856,#859,#907,.T.);
#749=FILL_AREA_STYLE('',(#908));
#750=EDGE_CURVE('',#852,#850,#909,.T.);
#751=EDGE_CURVE('',#846,#842,#910,.T.);
#752=FILL_AREA_STYLE('',(#911));
#753=EDGE_CURVE('',#841,#844,#912,.T.);
#754=FILL_AREA_STYLE('',(#913));
#755=EDGE_CURVE('',#914,#898,#915,.T.);
#756=EDGE_CURVE('',#916,#914,#917,.T.);
#757=EDGE_CURVE('',#918,#916,#919,.T.);
#758=EDGE_CURVE('',#918,#920,#921,.T.);
#759=EDGE_CURVE('',#922,#920,#923,.T.);
#760=EDGE_CURVE('',#924,#922,#925,.T.);
#761=EDGE_CURVE('',#880,#924,#926,.T.);
#762=FILL_AREA_STYLE('',(#927));
#763=EDGE_CURVE('',#928,#924,#929,.T.);
#764=EDGE_CURVE('',#930,#928,#931,.T.);
#765=EDGE_CURVE('',#932,#930,#933,.T.);
#766=EDGE_CURVE('',#934,#932,#935,.T.);
#767=EDGE_CURVE('',#882,#934,#936,.T.);
#768=EDGE_CURVE('',#837,#833,#937,.T.);
#769=FILL_AREA_STYLE('',(#938));
#770=EDGE_CURVE('',#922,#939,#940,.T.);
#771=EDGE_CURVE('',#928,#939,#941,.T.);
#772=FILL_AREA_STYLE('',(#942));
#773=EDGE_CURVE('',#943,#920,#944,.T.);
#774=EDGE_CURVE('',#939,#943,#945,.T.);
#775=FILL_AREA_STYLE('',(#946));
#776=EDGE_CURVE('',#943,#947,#948,.T.);
#777=EDGE_CURVE('',#947,#949,#950,.T.);
#778=EDGE_CURVE('',#930,#949,#951,.T.);
#779=FILL_AREA_STYLE('',(#952));
#780=EDGE_CURVE('',#932,#953,#954,.T.);
#781=EDGE_CURVE('',#955,#953,#956,.T.);
#782=EDGE_CURVE('',#934,#955,#957,.T.);
#783=FILL_AREA_STYLE('',(#958));
#784=EDGE_CURVE('',#949,#953,#959,.T.);
#785=FILL_AREA_STYLE('',(#960));
#786=EDGE_CURVE('',#832,#835,#961,.T.);
#787=EDGE_CURVE('',#962,#955,#963,.T.);
#788=EDGE_CURVE('',#962,#947,#964,.T.);
#789=FILL_AREA_STYLE('',(#965));
#790=FILL_AREA_STYLE('',(#966));
#791=EDGE_CURVE('',#967,#916,#968,.T.);
#792=EDGE_CURVE('',#969,#967,#970,.T.);
#793=EDGE_CURVE('',#918,#969,#971,.T.);
#794=FILL_AREA_STYLE('',(#972));
#795=EDGE_CURVE('',#914,#973,#974,.T.);
#796=EDGE_CURVE('',#967,#973,#975,.T.);
#797=FILL_AREA_STYLE('',(#976));
#798=EDGE_CURVE('',#977,#900,#978,.T.);
#799=EDGE_CURVE('',#979,#977,#980,.T.);
#800=EDGE_CURVE('',#981,#979,#982,.T.);
#801=EDGE_CURVE('',#973,#981,#983,.T.);
#802=EDGE_CURVE('',#823,#826,#984,.T.);
#803=FILL_AREA_STYLE('',(#985));
#804=EDGE_CURVE('',#828,#824,#986,.T.);
#805=FILL_AREA_STYLE('',(#987));
#806=EDGE_CURVE('',#988,#979,#989,.T.);
#807=EDGE_CURVE('',#990,#988,#991,.T.);
#808=EDGE_CURVE('',#990,#981,#992,.T.);
#809=FILL_AREA_STYLE('',(#993));
#810=EDGE_CURVE('',#994,#962,#995,.T.);
#811=EDGE_CURVE('',#996,#969,#997,.T.);
#812=EDGE_CURVE('',#994,#996,#998,.T.);
#813=FILL_AREA_STYLE('',(#999));
#814=EDGE_CURVE('',#988,#1000,#1001,.T.);
#815=EDGE_CURVE('',#1000,#994,#1002,.T.);
#816=EDGE_CURVE('',#996,#990,#1003,.T.);
#817=FILL_AREA_STYLE('',(#1004));
#818=EDGE_CURVE('',#1000,#977,#1005,.T.);
#819=FILL_AREA_STYLE('',(#1006));
#820=FILL_AREA_STYLE('',(#1007));
#821=FILL_AREA_STYLE('',(#1008));
#822=FILL_AREA_STYLE_COLOUR('',#1009);
#823=VERTEX_POINT('',#1010);
#824=VERTEX_POINT('',#1011);
#825=LINE('',#1012,#1013);
#826=VERTEX_POINT('',#1014);
#827=CIRCLE('',#1015,3.0);
#828=VERTEX_POINT('',#1016);
#829=LINE('',#1017,#1018);
#830=CIRCLE('',#1019,3.0);
#831=FILL_AREA_STYLE_COLOUR('',#1020);
#832=VERTEX_POINT('',#1021);
#833=VERTEX_POINT('',#1022);
#834=LINE('',#1023,#1024);
#835=VERTEX_POINT('',#1025);
#836=CIRCLE('',#1026,3.0);
#837=VERTEX_POINT('',#1027);
#838=LINE('',#1028,#1029);
#839=CIRCLE('',#1030,3.0);
#840=FILL_AREA_STYLE_COLOUR('',#1031);
#841=VERTEX_POINT('',#1032);
#842=VERTEX_POINT('',#1033);
#843=LINE('',#1034,#1035);
#844=VERTEX_POINT('',#1036);
#845=CIRCLE('',#1037,2.9);
#846=VERTEX_POINT('',#1038);
#847=LINE('',#1039,#1040);
#848=CIRCLE('',#1041,1.6);
#849=FILL_AREA_STYLE_COLOUR('',#1042);
#850=VERTEX_POINT('',#1043);
#851=LINE('',#1044,#1045);
#852=VERTEX_POINT('',#1046);
#853=LINE('',#1047,#1048);
#854=CIRCLE('',#1049,1.6);
#855=FILL_AREA_STYLE_COLOUR('',#1050);
#856=VERTEX_POINT('',#1051);
#857=VERTEX_POINT('',#1052);
#858=LINE('',#1053,#1054);
#859=VERTEX_POINT('',#1055);
#860=CIRCLE('',#1056,2.9);
#861=VERTEX_POINT('',#1057);
#862=LINE('',#1058,#1059);
#863=CIRCLE('',#1060,1.6);
#864=FILL_AREA_STYLE_COLOUR('',#1061);
#865=VERTEX_POINT('',#1062);
#866=LINE('',#1063,#1064);
#867=VERTEX_POINT('',#1065);
#868=LINE('',#1066,#1067);
#869=CIRCLE('',#1068,1.6);
#870=FILL_AREA_STYLE_COLOUR('',#1069);
#871=VERTEX_POINT('',#1070);
#872=VERTEX_POINT('',#1071);
#873=LINE('',#1072,#1073);
#874=VERTEX_POINT('',#1074);
#875=LINE('',#1075,#1076);
#876=VERTEX_POINT('',#1077);
#877=LINE('',#1078,#1079);
#878=LINE('',#1080,#1081);
#879=FILL_AREA_STYLE_COLOUR('',#1082);
#880=VERTEX_POINT('',#1083);
#881=LINE('',#1084,#1085);
#882=VERTEX_POINT('',#1086);
#883=LINE('',#1087,#1088);
#884=LINE('',#1089,#1090);
#885=FILL_AREA_STYLE_COLOUR('',#1091);
#886=VERTEX_POINT('',#1092);
#887=LINE('',#1093,#1094);
#888=VERTEX_POINT('',#1095);
#889=LINE('',#1096,#1097);
#890=LINE('',#1098,#1099);
#891=FILL_AREA_STYLE_COLOUR('',#1100);
#892=VERTEX_POINT('',#1101);
#893=LINE('',#1102,#1103);
#894=VERTEX_POINT('',#1104);
#895=LINE('',#1105,#1106);
#896=LINE('',#1107,#1108);
#897=FILL_AREA_STYLE_COLOUR('',#1109);
#898=VERTEX_POINT('',#1110);
#899=LINE('',#1111,#1112);
#900=VERTEX_POINT('',#1113);
#901=LINE('',#1114,#1115);
#902=LINE('',#1116,#1117);
#903=FILL_AREA_STYLE_COLOUR('',#1118);
#904=CIRCLE('',#1119,1.6);
#905=CIRCLE('',#1120,1.6);
#906=FILL_AREA_STYLE_COLOUR('',#1121);
#907=CIRCLE('',#1122,2.9);
#908=FILL_AREA_STYLE_COLOUR('',#1123);
#909=CIRCLE('',#1124,1.6);
#910=CIRCLE('',#1125,1.6);
#911=FILL_AREA_STYLE_COLOUR('',#1126);
#912=CIRCLE('',#1127,2.9);
#913=FILL_AREA_STYLE_COLOUR('',#1128);
#914=VERTEX_POINT('',#1129);
#915=LINE('',#1130,#1131);
#916=VERTEX_POINT('',#1132);
#917=LINE('',#1133,#1134);
#918=VERTEX_POINT('',#1135);
#919=LINE('',#1136,#1137);
#920=VERTEX_POINT('',#1138);
#921=LINE('',#1139,#1140);
#922=VERTEX_POINT('',#1141);
#923=LINE('',#1142,#1143);
#924=VERTEX_POINT('',#1144);
#925=LINE('',#1145,#1146);
#926=LINE('',#1147,#1148);
#927=FILL_AREA_STYLE_COLOUR('',#1149);
#928=VERTEX_POINT('',#1150);
#929=LINE('',#1151,#1152);
#930=VERTEX_POINT('',#1153);
#931=LINE('',#1154,#1155);
#932=VERTEX_POINT('',#1156);
#933=LINE('',#1157,#1158);
#934=VERTEX_POINT('',#1159);
#935=LINE('',#1160,#1161);
#936=LINE('',#1162,#1163);
#937=CIRCLE('',#1164,3.0);
#938=FILL_AREA_STYLE_COLOUR('',#1165);
#939=VERTEX_POINT('',#1166);
#940=LINE('',#1167,#1168);
#941=LINE('',#1169,#1170);
#942=FILL_AREA_STYLE_COLOUR('',#1171);
#943=VERTEX_POINT('',#1172);
#944=LINE('',#1173,#1174);
#945=LINE('',#1175,#1176);
#946=FILL_AREA_STYLE_COLOUR('',#1177);
#947=VERTEX_POINT('',#1178);
#948=LINE('',#1179,#1180);
#949=VERTEX_POINT('',#1181);
#950=LINE('',#1182,#1183);
#951=LINE('',#1184,#1185);
#952=FILL_AREA_STYLE_COLOUR('',#1186);
#953=VERTEX_POINT('',#1187);
#954=LINE('',#1188,#1189);
#955=VERTEX_POINT('',#1190);
#956=LINE('',#1191,#1192);
#957=LINE('',#1193,#1194);
#958=FILL_AREA_STYLE_COLOUR('',#1195);
#959=LINE('',#1196,#1197);
#960=FILL_AREA_STYLE_COLOUR('',#1198);
#961=CIRCLE('',#1199,3.0);
#962=VERTEX_POINT('',#1200);
#963=LINE('',#1201,#1202);
#964=LINE('',#1203,#1204);
#965=FILL_AREA_STYLE_COLOUR('',#1205);
#966=FILL_AREA_STYLE_COLOUR('',#1206);
#967=VERTEX_POINT('',#1207);
#968=LINE('',#1208,#1209);
#969=VERTEX_POINT('',#1210);
#970=LINE('',#1211,#1212);
#971=LINE('',#1213,#1214);
#972=FILL_AREA_STYLE_COLOUR('',#1215);
#973=VERTEX_POINT('',#1216);
#974=LINE('',#1217,#1218);
#975=LINE('',#1219,#1220);
#976=FILL_AREA_STYLE_COLOUR('',#1221);
#977=VERTEX_POINT('',#1222);
#978=LINE('',#1223,#1224);
#979=VERTEX_POINT('',#1225);
#980=LINE('',#1226,#1227);
#981=VERTEX_POINT('',#1228);
#982=LINE('',#1229,#1230);
#983=LINE('',#1231,#1232);
#984=CIRCLE('',#1233,3.0);
#985=FILL_AREA_STYLE_COLOUR('',#1234);
#986=CIRCLE('',#1235,3.0);
#987=FILL_AREA_STYLE_COLOUR('',#1236);
#988=VERTEX_POINT('',#1237);
#989=LINE('',#1238,#1239);
#990=VERTEX_POINT('',#1240);
#991=LINE('',#1241,#1242);
#992=LINE('',#1243,#1244);
#993=FILL_AREA_STYLE_COLOUR('',#1245);
#994=VERTEX_POINT('',#1246);
#995=LINE('',#1247,#1248);
#996=VERTEX_POINT('',#1249);
#997=LINE('',#1250,#1251);
#998=LINE('',#1252,#1253);
#999=FILL_AREA_STYLE_COLOUR('',#1254);
#1000=VERTEX_POINT('',#1255);
#1001=LINE('',#1256,#1257);
#1002=LINE('',#1258,#1259);
#1003=LINE('',#1260,#1261);
#1004=FILL_AREA_STYLE_COLOUR('',#1262);
#1005=LINE('',#1263,#1264);
#1006=FILL_AREA_STYLE_COLOUR('',#1265);
#1007=FILL_AREA_STYLE_COLOUR('',#1266);
#1008=FILL_AREA_STYLE_COLOUR('',#1267);
#1009=COLOUR_RGB('',0.501960813999176,0.501960813999176,0.501960813999176);
#1010=CARTESIAN_POINT('',(-500.0,21.75,56.0));
#1011=CARTESIAN_POINT('',(-500.0,23.5,56.0));
#1012=CARTESIAN_POINT('',(-500.0,22.625,56.0));
#1013=VECTOR('',#1268,1.0);
#1014=CARTESIAN_POINT('',(-506.0,21.75,56.0));
#1015=AXIS2_PLACEMENT_3D('',#1269,#1270,#1271);
#1016=CARTESIAN_POINT('',(-506.0,23.5,56.0));
#1017=CARTESIAN_POINT('',(-506.0,22.625,56.0));
#1018=VECTOR('',#1272,1.0);
#1019=AXIS2_PLACEMENT_3D('',#1273,#1274,#1275);
#1020=COLOUR_RGB('',0.501960813999176,0.501960813999176,0.501960813999176);
#1021=CARTESIAN_POINT('',(-500.0,-3.5,56.0));
#1022=CARTESIAN_POINT('',(-500.0,-1.75,56.0));
#1023=CARTESIAN_POINT('',(-500.0,-2.625,56.0));
#1024=VECTOR('',#1276,1.0);
#1025=CARTESIAN_POINT('',(-506.0,-3.5,56.0));
#1026=AXIS2_PLACEMENT_3D('',#1277,#1278,#1279);
#1027=CARTESIAN_POINT('',(-506.0,-1.75,56.0));
#1028=CARTESIAN_POINT('',(-506.0,-2.625,56.0));
#1029=VECTOR('',#1280,1.0);
#1030=AXIS2_PLACEMENT_3D('',#1281,#1282,#1283);
#1031=COLOUR_RGB('',0.501960813999176,0.501960813999176,0.501960813999176);
#1032=CARTESIAN_POINT('',(-482.1,10.0,61.5));
#1033=CARTESIAN_POINT('',(-483.4,10.0,62.8));
#1034=CARTESIAN_POINT('',(-482.75,10.0,62.15));
#1035=VECTOR('',#1284,1.0);
#1036=CARTESIAN_POINT('',(-487.9,10.0,61.5));
#1037=AXIS2_PLACEMENT_3D('',#1285,#1286,#1287);
#1038=CARTESIAN_POINT('',(-486.6,10.0,62.8));
#1039=CARTESIAN_POINT('',(-487.25,10.0,62.15));
#1040=VECTOR('',#1288,1.0);
#1041=AXIS2_PLACEMENT_3D('',#1289,#1290,#1291);
#1042=COLOUR_RGB('',0.501960813999176,0.501960813999176,0.501960813999176);
#1043=CARTESIAN_POINT('',(-483.4,10.0,63.5));
#1044=CARTESIAN_POINT('',(-483.4,10.0,63.15));
#1045=VECTOR('',#1292,1.0);
#1046=CARTESIAN_POINT('',(-486.6,10.0,63.5));
#1047=CARTESIAN_POINT('',(-486.6,10.0,63.15));
#1048=VECTOR('',#1293,1.0);
#1049=AXIS2_PLACEMENT_3D('',#1294,#1295,#1296);
#1050=COLOUR_RGB('',0.501960813999176,0.501960813999176,0.501960813999176);
#1051=CARTESIAN_POINT('',(-490.1,10.0,61.5));
#1052=CARTESIAN_POINT('',(-491.4,10.0,62.8));
#1053=CARTESIAN_POINT('',(-490.75,10.0,62.15));
#1054=VECTOR('',#1297,1.0);
#1055=CARTESIAN_POINT('',(-495.9,10.0,61.5));
#1056=AXIS2_PLACEMENT_3D('',#1298,#1299,#1300);
#1057=CARTESIAN_POINT('',(-494.6,10.0,62.8));
#1058=CARTESIAN_POINT('',(-495.25,10.0,62.15));
#1059=VECTOR('',#1301,1.0);
#1060=AXIS2_PLACEMENT_3D('',#1302,#1303,#1304);
#1061=COLOUR_RGB('',0.501960813999176,0.501960813999176,0.501960813999176);
#1062=CARTESIAN_POINT('',(-491.4,10.0,63.5));
#1063=CARTESIAN_POINT('',(-491.4,10.0,63.15));
#1064=VECTOR('',#1305,1.0);
#1065=CARTESIAN_POINT('',(-494.6,10.0,63.5));
#1066=CARTESIAN_POINT('',(-494.6,10.0,63.15));
#1067=VECTOR('',#1306,1.0);
#1068=AXIS2_PLACEMENT_3D('',#1307,#1308,#1309);
#1069=COLOUR_RGB('',0.501960813999176,0.501960813999176,0.501960813999176);
#1070=CARTESIAN_POINT('',(-495.5,0.0,61.5));
#1071=CARTESIAN_POINT('',(-497.0,0.0,61.5));
#1072=CARTESIAN_POINT('',(-494.125,0.0,61.5));
#1073=VECTOR('',#1310,1.0);
#1074=CARTESIAN_POINT('',(-495.5,0.0,63.5));
#1075=CARTESIAN_POINT('',(-495.5,0.0,59.75));
#1076=VECTOR('',#1311,1.0);
#1077=CARTESIAN_POINT('',(-497.0,0.0,63.5));
#1078=CARTESIAN_POINT('',(-494.125,0.0,63.5));
#1079=VECTOR('',#1312,1.0);
#1080=CARTESIAN_POINT('',(-497.0,0.0,61.125));
#1081=VECTOR('',#1313,1.0);
#1082=COLOUR_RGB('',0.501960813999176,0.501960813999176,0.501960813999176);
#1083=CARTESIAN_POINT('',(-495.5,-1.75,61.5));
#1084=CARTESIAN_POINT('',(-495.5,10.4375,61.5));
#1085=VECTOR('',#1314,1.0);
#1086=CARTESIAN_POINT('',(-495.5,-1.75,63.5));
#1087=CARTESIAN_POINT('',(-495.5,-1.75,57.875));
#1088=VECTOR('',#1315,1.0);
#1089=CARTESIAN_POINT('',(-495.5,10.4375,63.5));
#1090=VECTOR('',#1316,1.0);
#1091=COLOUR_RGB('',0.501960813999176,0.501960813999176,0.501960813999176);
#1092=CARTESIAN_POINT('',(-497.0,20.0,63.5));
#1093=CARTESIAN_POINT('',(-497.0,21.75,63.5));
#1094=VECTOR('',#1317,1.0);
#1095=CARTESIAN_POINT('',(-497.0,20.0,61.5));
#1096=CARTESIAN_POINT('',(-497.0,20.0,61.125));
#1097=VECTOR('',#1318,1.0);
#1098=CARTESIAN_POINT('',(-497.0,21.75,61.5));
#1099=VECTOR('',#1319,1.0);
#1100=COLOUR_RGB('',0.501960813999176,0.501960813999176,0.501960813999176);
#1101=CARTESIAN_POINT('',(-495.5,20.0,63.5));
#1102=CARTESIAN_POINT('',(-494.125,20.0,63.5));
#1103=VECTOR('',#1320,1.0);
#1104=CARTESIAN_POINT('',(-495.5,20.0,61.5));
#1105=CARTESIAN_POINT('',(-495.5,20.0,59.75));
#1106=VECTOR('',#1321,1.0);
#1107=CARTESIAN_POINT('',(-494.125,20.0,61.5));
#1108=VECTOR('',#1322,1.0);
#1109=COLOUR_RGB('',0.501960813999176,0.501960813999176,0.501960813999176);
#1110=CARTESIAN_POINT('',(-495.5,21.75,61.5));
#1111=CARTESIAN_POINT('',(-495.5,21.3125,61.5));
#1112=VECTOR('',#1323,1.0);
#1113=CARTESIAN_POINT('',(-495.5,21.75,63.5));
#1114=CARTESIAN_POINT('',(-495.5,21.3125,63.5));
#1115=VECTOR('',#1324,1.0);
#1116=CARTESIAN_POINT('',(-495.5,21.75,57.875));
#1117=VECTOR('',#1325,1.0);
#1118=COLOUR_RGB('',0.501960813999176,0.501960813999176,0.501960813999176);
#1119=AXIS2_PLACEMENT_3D('',#1326,#1327,#1328);
#1120=AXIS2_PLACEMENT_3D('',#1329,#1330,#1331);
#1121=COLOUR_RGB('',0.501960813999176,0.501960813999176,0.501960813999176);
#1122=AXIS2_PLACEMENT_3D('',#1332,#1333,#1334);
#1123=COLOUR_RGB('',0.501960813999176,0.501960813999176,0.501960813999176);
#1124=AXIS2_PLACEMENT_3D('',#1335,#1336,#1337);
#1125=AXIS2_PLACEMENT_3D('',#1338,#1339,#1340);
#1126=COLOUR_RGB('',0.501960813999176,0.501960813999176,0.501960813999176);
#1127=AXIS2_PLACEMENT_3D('',#1341,#1342,#1343);
#1128=COLOUR_RGB('',0.501960813999176,0.501960813999176,0.501960813999176);
#1129=CARTESIAN_POINT('',(-492.0,21.75,61.5));
#1130=CARTESIAN_POINT('',(-495.125,21.75,61.5));
#1131=VECTOR('',#1344,1.0);
#1132=CARTESIAN_POINT('',(-492.0,20.0,61.5));
#1133=CARTESIAN_POINT('',(-492.0,15.875,61.5));
#1134=VECTOR('',#1345,1.0);
#1135=CARTESIAN_POINT('',(-481.0,20.0,61.5));
#1136=CARTESIAN_POINT('',(-491.25,20.0,61.5));
#1137=VECTOR('',#1346,1.0);
#1138=CARTESIAN_POINT('',(-481.0,0.0,61.5));
#1139=CARTESIAN_POINT('',(-481.0,21.75,61.5));
#1140=VECTOR('',#1347,1.0);
#1141=CARTESIAN_POINT('',(-492.0,0.0,61.5));
#1142=CARTESIAN_POINT('',(-491.25,0.0,61.5));
#1143=VECTOR('',#1348,1.0);
#1144=CARTESIAN_POINT('',(-492.0,-1.75,61.5));
#1145=CARTESIAN_POINT('',(-492.0,15.875,61.5));
#1146=VECTOR('',#1349,1.0);
#1147=CARTESIAN_POINT('',(-495.125,-1.75,61.5));
#1148=VECTOR('',#1350,1.0);
#1149=COLOUR_RGB('',0.501960813999176,0.501960813999176,0.501960813999176);
#1150=CARTESIAN_POINT('',(-492.0,-1.75,49.0773502691917));
#1151=CARTESIAN_POINT('',(-492.0,-1.75,56.0));
#1152=VECTOR('',#1351,1.0);
#1153=CARTESIAN_POINT('',(-493.0,-1.75,48.5));
#1154=CARTESIAN_POINT('',(-491.469952367896,-1.75,49.3833734122714));
#1155=VECTOR('',#1352,1.0);
#1156=CARTESIAN_POINT('',(-510.5,-1.75,48.5));
#1157=CARTESIAN_POINT('',(-499.625,-1.75,48.5));
#1158=VECTOR('',#1353,1.0);
#1159=CARTESIAN_POINT('',(-510.5,-1.75,63.5));
#1160=CARTESIAN_POINT('',(-510.5,-1.75,56.0));
#1161=VECTOR('',#1354,1.0);
#1162=CARTESIAN_POINT('',(-496.625,-1.75,63.5));
#1163=VECTOR('',#1355,1.0);
#1164=AXIS2_PLACEMENT_3D('',#1356,#1357,#1358);
#1165=COLOUR_RGB('',0.501960813999176,0.501960813999176,0.501960813999176);
#1166=CARTESIAN_POINT('',(-492.0,0.0,49.0773502691917));
#1167=CARTESIAN_POINT('',(-492.0,0.0,56.0));
#1168=VECTOR('',#1359,1.0);
#1169=CARTESIAN_POINT('',(-492.0,16.75,49.0773502691917));
#1170=VECTOR('',#1360,1.0);
#1171=COLOUR_RGB('',0.501960813999176,0.501960813999176,0.501960813999176);
#1172=CARTESIAN_POINT('',(-481.0,0.0,55.4282032303));
#1173=CARTESIAN_POINT('',(-481.0,0.0,57.732050807575));
#1174=VECTOR('',#1361,1.0);
#1175=CARTESIAN_POINT('',(-488.563702367901,0.0,51.0612976321067));
#1176=VECTOR('',#1362,1.0);
#1177=COLOUR_RGB('',0.501960813999176,0.501960813999176,0.501960813999176);
#1178=CARTESIAN_POINT('',(-481.0,-3.5,55.4282032303));
#1179=CARTESIAN_POINT('',(-481.0,23.5,55.4282032303));
#1180=VECTOR('',#1363,1.0);
#1181=CARTESIAN_POINT('',(-493.0,-3.5,48.5));
#1182=CARTESIAN_POINT('',(-481.0,-3.5,55.4282032303));
#1183=VECTOR('',#1364,1.0);
#1184=CARTESIAN_POINT('',(-493.0,23.5,48.5));
#1185=VECTOR('',#1365,1.0);
#1186=COLOUR_RGB('',0.501960813999176,0.501960813999176,0.501960813999176);
#1187=CARTESIAN_POINT('',(-510.5,-3.5,48.5));
#1188=CARTESIAN_POINT('',(-510.5,10.0,48.5));
#1189=VECTOR('',#1366,1.0);
#1190=CARTESIAN_POINT('',(-510.5,-3.5,63.5));
#1191=CARTESIAN_POINT('',(-510.5,-3.5,56.0));
#1192=VECTOR('',#1367,1.0);
#1193=CARTESIAN_POINT('',(-510.5,10.0,63.5));
#1194=VECTOR('',#1368,1.0);
#1195=COLOUR_RGB('',0.501960813999176,0.501960813999176,0.501960813999176);
#1196=CARTESIAN_POINT('',(-493.0,-3.5,48.5));
#1197=VECTOR('',#1369,1.0);
#1198=COLOUR_RGB('',0.501960813999176,0.501960813999176,0.501960813999176);
#1199=AXIS2_PLACEMENT_3D('',#1370,#1371,#1372);
#1200=CARTESIAN_POINT('',(-481.0,-3.5,63.5));
#1201=CARTESIAN_POINT('',(-506.75,-3.5,63.5));
#1202=VECTOR('',#1373,1.0);
#1203=CARTESIAN_POINT('',(-481.0,-3.5,63.5));
#1204=VECTOR('',#1374,1.0);
#1205=COLOUR_RGB('',0.501960813999176,0.501960813999176,0.501960813999176);
#1206=COLOUR_RGB('',0.501960813999176,0.501960813999176,0.501960813999176);
#1207=CARTESIAN_POINT('',(-492.0,20.0,49.0773502691917));
#1208=CARTESIAN_POINT('',(-492.0,20.0,56.0));
#1209=VECTOR('',#1375,1.0);
#1210=CARTESIAN_POINT('',(-481.0,20.0,55.4282032303));
#1211=CARTESIAN_POINT('',(-488.563702367901,20.0,51.0612976321067));
#1212=VECTOR('',#1376,1.0);
#1213=CARTESIAN_POINT('',(-481.0,20.0,57.732050807575));
#1214=VECTOR('',#1377,1.0);
#1215=COLOUR_RGB('',0.501960813999176,0.501960813999176,0.501960813999176);
#1216=CARTESIAN_POINT('',(-492.0,21.75,49.0773502691917));
#1217=CARTESIAN_POINT('',(-492.0,21.75,56.0));
#1218=VECTOR('',#1378,1.0);
#1219=CARTESIAN_POINT('',(-492.0,16.75,49.0773502691917));
#1220=VECTOR('',#1379,1.0);
#1221=COLOUR_RGB('',0.501960813999176,0.501960813999176,0.501960813999176);
#1222=CARTESIAN_POINT('',(-510.5,21.75,63.5));
#1223=CARTESIAN_POINT('',(-496.625,21.75,63.5));
#1224=VECTOR('',#1380,1.0);
#1225=CARTESIAN_POINT('',(-510.5,21.75,48.5));
#1226=CARTESIAN_POINT('',(-510.5,21.75,56.0));
#1227=VECTOR('',#1381,1.0);
#1228=CARTESIAN_POINT('',(-493.0,21.75,48.5));
#1229=CARTESIAN_POINT('',(-499.625,21.75,48.5));
#1230=VECTOR('',#1382,1.0);
#1231=CARTESIAN_POINT('',(-491.469952367896,21.75,49.3833734122714));
#1232=VECTOR('',#1383,1.0);
#1233=AXIS2_PLACEMENT_3D('',#1384,#1385,#1386);
#1234=COLOUR_RGB('',0.501960813999176,0.501960813999176,0.501960813999176);
#1235=AXIS2_PLACEMENT_3D('',#1387,#1388,#1389);
#1236=COLOUR_RGB('',0.501960813999176,0.501960813999176,0.501960813999176);
#1237=CARTESIAN_POINT('',(-510.5,23.5,48.5));
#1238=CARTESIAN_POINT('',(-510.5,10.0,48.5));
#1239=VECTOR('',#1390,1.0);
#1240=CARTESIAN_POINT('',(-493.0,23.5,48.5));
#1241=CARTESIAN_POINT('',(-493.0,23.5,48.5));
#1242=VECTOR('',#1391,1.0);
#1243=CARTESIAN_POINT('',(-493.0,23.5,48.5));
#1244=VECTOR('',#1392,1.0);
#1245=COLOUR_RGB('',0.501960813999176,0.501960813999176,0.501960813999176);
#1246=CARTESIAN_POINT('',(-481.0,23.5,63.5));
#1247=CARTESIAN_POINT('',(-481.0,23.5,63.5));
#1248=VECTOR('',#1393,1.0);
#1249=CARTESIAN_POINT('',(-481.0,23.5,55.4282032303));
#1250=CARTESIAN_POINT('',(-481.0,23.5,55.4282032303));
#1251=VECTOR('',#1394,1.0);
#1252=CARTESIAN_POINT('',(-481.0,23.5,63.5));
#1253=VECTOR('',#1395,1.0);
#1254=COLOUR_RGB('',0.501960813999176,0.501960813999176,0.501960813999176);
#1255=CARTESIAN_POINT('',(-510.5,23.5,63.5));
#1256=CARTESIAN_POINT('',(-510.5,23.5,56.0));
#1257=VECTOR('',#1396,1.0);
#1258=CARTESIAN_POINT('',(-506.75,23.5,63.5));
#1259=VECTOR('',#1397,1.0);
#1260=CARTESIAN_POINT('',(-481.0,23.5,55.4282032303));
#1261=VECTOR('',#1398,1.0);
#1262=COLOUR_RGB('',0.501960813999176,0.501960813999176,0.501960813999176);
#1263=CARTESIAN_POINT('',(-510.5,10.0,63.5));
#1264=VECTOR('',#1399,1.0);
#1265=COLOUR_RGB('',0.501960813999176,0.501960813999176,0.501960813999176);
#1266=COLOUR_RGB('',0.501960813999176,0.501960813999176,0.501960813999176);
#1267=COLOUR_RGB('',0.501960813999176,0.501960813999176,0.501960813999176);
#1268=DIRECTION('',(-0.0,1.0,-0.0));
#1269=CARTESIAN_POINT('',(-503.0,21.75,56.0));
#1270=DIRECTION('',(-0.0,1.0,0.0));
#1271=DIRECTION('',(1.0,0.0,0.0));
#1272=DIRECTION('',(-0.0,-1.0,0.0));
#1273=CARTESIAN_POINT('',(-503.0,23.5,56.0));
#1274=DIRECTION('',(0.0,-1.0,0.0));
#1275=DIRECTION('',(1.0,0.0,0.0));
#1276=DIRECTION('',(-0.0,1.0,-0.0));
#1277=CARTESIAN_POINT('',(-503.0,-3.5,56.0));
#1278=DIRECTION('',(-0.0,1.0,0.0));
#1279=DIRECTION('',(1.0,0.0,0.0));
#1280=DIRECTION('',(-0.0,-1.0,0.0));
#1281=CARTESIAN_POINT('',(-503.0,-1.75,56.0));
#1282=DIRECTION('',(0.0,-1.0,0.0));
#1283=DIRECTION('',(1.0,0.0,0.0));
#1284=DIRECTION('',(-0.707106781186547,-0.0,0.707106781186548));
#1285=CARTESIAN_POINT('',(-485.0,10.0,61.5));
#1286=DIRECTION('',(0.0,-0.0,1.0));
#1287=DIRECTION('',(1.0,0.0,0.0));
#1288=DIRECTION('',(-0.707106781186547,0.0,-0.707106781186548));
#1289=CARTESIAN_POINT('',(-485.0,10.0,62.8));
#1290=DIRECTION('',(0.0,0.0,-1.0));
#1291=DIRECTION('',(1.0,0.0,0.0));
#1292=DIRECTION('',(-0.0,-0.0,1.0));
#1293=DIRECTION('',(-0.0,0.0,-1.0));
#1294=CARTESIAN_POINT('',(-485.0,10.0,63.5));
#1295=DIRECTION('',(0.0,0.0,-1.0));
#1296=DIRECTION('',(1.0,0.0,0.0));
#1297=DIRECTION('',(-0.707106781186547,-0.0,0.707106781186548));
#1298=CARTESIAN_POINT('',(-493.0,10.0,61.5));
#1299=DIRECTION('',(0.0,-0.0,1.0));
#1300=DIRECTION('',(1.0,0.0,0.0));
#1301=DIRECTION('',(-0.707106781186547,0.0,-0.707106781186548));
#1302=CARTESIAN_POINT('',(-493.0,10.0,62.8));
#1303=DIRECTION('',(0.0,0.0,-1.0));
#1304=DIRECTION('',(1.0,0.0,0.0));
#1305=DIRECTION('',(-0.0,-0.0,1.0));
#1306=DIRECTION('',(-0.0,0.0,-1.0));
#1307=CARTESIAN_POINT('',(-493.0,10.0,63.5));
#1308=DIRECTION('',(0.0,0.0,-1.0));
#1309=DIRECTION('',(1.0,0.0,0.0));
#1310=DIRECTION('',(-1.0,0.0,0.0));
#1311=DIRECTION('',(0.0,0.0,-1.0));
#1312=DIRECTION('',(1.0,0.0,0.0));
#1313=DIRECTION('',(0.0,-0.0,1.0));
#1314=DIRECTION('',(0.0,1.0,0.0));
#1315=DIRECTION('',(0.0,0.0,-1.0));
#1316=DIRECTION('',(0.0,-1.0,0.0));
#1317=DIRECTION('',(0.0,-1.0,0.0));
#1318=DIRECTION('',(-0.0,0.0,-1.0));
#1319=DIRECTION('',(0.0,-1.0,0.0));
#1320=DIRECTION('',(-1.0,0.0,0.0));
#1321=DIRECTION('',(0.0,0.0,1.0));
#1322=DIRECTION('',(1.0,-0.0,0.0));
#1323=DIRECTION('',(0.0,1.0,0.0));
#1324=DIRECTION('',(0.0,-1.0,0.0));
#1325=DIRECTION('',(0.0,-0.0,1.0));
#1326=CARTESIAN_POINT('',(-493.0,10.0,63.5));
#1327=DIRECTION('',(0.0,0.0,-1.0));
#1328=DIRECTION('',(1.0,0.0,0.0));
#1329=CARTESIAN_POINT('',(-493.0,10.0,62.8));
#1330=DIRECTION('',(0.0,0.0,-1.0));
#1331=DIRECTION('',(1.0,0.0,0.0));
#1332=CARTESIAN_POINT('',(-493.0,10.0,61.5));
#1333=DIRECTION('',(0.0,-0.0,1.0));
#1334=DIRECTION('',(1.0,0.0,0.0));
#1335=CARTESIAN_POINT('',(-485.0,10.0,63.5));
#1336=DIRECTION('',(0.0,0.0,-1.0));
#1337=DIRECTION('',(1.0,0.0,0.0));
#1338=CARTESIAN_POINT('',(-485.0,10.0,62.8));
#1339=DIRECTION('',(0.0,0.0,-1.0));
#1340=DIRECTION('',(1.0,0.0,0.0));
#1341=CARTESIAN_POINT('',(-485.0,10.0,61.5));
#1342=DIRECTION('',(0.0,-0.0,1.0));
#1343=DIRECTION('',(1.0,0.0,0.0));
#1344=DIRECTION('',(-1.0,0.0,0.0));
#1345=DIRECTION('',(0.0,1.0,0.0));
#1346=DIRECTION('',(-1.0,0.0,0.0));
#1347=DIRECTION('',(0.0,-1.0,0.0));
#1348=DIRECTION('',(1.0,-0.0,0.0));
#1349=DIRECTION('',(0.0,1.0,0.0));
#1350=DIRECTION('',(1.0,-0.0,0.0));
#1351=DIRECTION('',(0.0,0.0,1.0));
#1352=DIRECTION('',(0.866025403783673,-0.0,0.500000000001326));
#1353=DIRECTION('',(1.0,-0.0,0.0));
#1354=DIRECTION('',(0.0,0.0,-1.0));
#1355=DIRECTION('',(-1.0,0.0,0.0));
#1356=CARTESIAN_POINT('',(-503.0,-1.75,56.0));
#1357=DIRECTION('',(0.0,-1.0,0.0));
#1358=DIRECTION('',(1.0,0.0,0.0));
#1359=DIRECTION('',(0.0,0.0,-1.0));
#1360=DIRECTION('',(0.0,1.0,0.0));
#1361=DIRECTION('',(0.0,0.0,1.0));
#1362=DIRECTION('',(0.866025403783673,-0.0,0.500000000001326));
#1363=DIRECTION('',(0.0,-1.0,0.0));
#1364=DIRECTION('',(-0.866025403783673,0.0,-0.500000000001326));
#1365=DIRECTION('',(0.0,-1.0,0.0));
#1366=DIRECTION('',(0.0,-1.0,0.0));
#1367=DIRECTION('',(0.0,0.0,-1.0));
#1368=DIRECTION('',(0.0,-1.0,0.0));
#1369=DIRECTION('',(-1.0,0.0,0.0));
#1370=CARTESIAN_POINT('',(-503.0,-3.5,56.0));
#1371=DIRECTION('',(-0.0,1.0,0.0));
#1372=DIRECTION('',(1.0,0.0,0.0));
#1373=DIRECTION('',(-1.0,0.0,0.0));
#1374=DIRECTION('',(0.0,0.0,-1.0));
#1375=DIRECTION('',(0.0,-0.0,1.0));
#1376=DIRECTION('',(-0.866025403783673,0.0,-0.500000000001326));
#1377=DIRECTION('',(0.0,0.0,-1.0));
#1378=DIRECTION('',(0.0,0.0,-1.0));
#1379=DIRECTION('',(0.0,1.0,0.0));
#1380=DIRECTION('',(1.0,0.0,0.0));
#1381=DIRECTION('',(0.0,0.0,1.0));
#1382=DIRECTION('',(-1.0,0.0,0.0));
#1383=DIRECTION('',(-0.866025403783673,0.0,-0.500000000001326));
#1384=CARTESIAN_POINT('',(-503.0,21.75,56.0));
#1385=DIRECTION('',(-0.0,1.0,0.0));
#1386=DIRECTION('',(1.0,0.0,0.0));
#1387=CARTESIAN_POINT('',(-503.0,23.5,56.0));
#1388=DIRECTION('',(0.0,-1.0,0.0));
#1389=DIRECTION('',(1.0,0.0,0.0));
#1390=DIRECTION('',(0.0,-1.0,0.0));
#1391=DIRECTION('',(-1.0,0.0,0.0));
#1392=DIRECTION('',(0.0,-1.0,0.0));
#1393=DIRECTION('',(0.0,-1.0,0.0));
#1394=DIRECTION('',(0.0,-1.0,0.0));
#1395=DIRECTION('',(0.0,0.0,-1.0));
#1396=DIRECTION('',(0.0,0.0,1.0));
#1397=DIRECTION('',(1.0,0.0,0.0));
#1398=DIRECTION('',(-0.866025403783673,0.0,-0.500000000001326));
#1399=DIRECTION('',(0.0,-1.0,0.0));
ENDSEC;
END-ISO-10303-21;
